<?xml version="1.0" encoding="UTF-8" standalone="no"?>
<!-- Created with Inkscape (http://www.inkscape.org/) -->

<svg
   xmlns:dc="http://purl.org/dc/elements/1.1/"
   xmlns:cc="http://creativecommons.org/ns#"
   xmlns:rdf="http://www.w3.org/1999/02/22-rdf-syntax-ns#"
   xmlns:svg="http://www.w3.org/2000/svg"
   xmlns="http://www.w3.org/2000/svg"
   xmlns:sodipodi="http://sodipodi.sourceforge.net/DTD/sodipodi-0.dtd"
   xmlns:inkscape="http://www.inkscape.org/namespaces/inkscape"
   width="210mm"
   height="297mm"
   viewBox="0 0 744.09448819 1052.3622047"
   id="svg2"
   version="1.1"
   inkscape:version="0.92.3 (2405546, 2018-03-11)"
   sodipodi:docname="logo-horizontal.svg"
   inkscape:export-filename="/home/mulin/Documentos/DebConf19/debconf19-horizontal.png"
   inkscape:export-xdpi="529.1861"
   inkscape:export-ydpi="529.1861">
  <defs
     id="defs4">
    <inkscape:path-effect
       effect="spiro"
       id="path-effect3851"
       is_visible="true" />
    <inkscape:path-effect
       effect="simplify"
       id="path-effect3849"
       is_visible="true"
       steps="1"
       threshold="0.0106061"
       smooth_angles="360"
       helper_size="0"
       simplify_individual_paths="false"
       simplify_just_coalesce="false"
       simplifyindividualpaths="false"
       simplifyJustCoalesce="false" />
    <inkscape:path-effect
       effect="skeletal"
       id="path-effect5017"
       is_visible="true"
       pattern="m 128.39481,-218.33609 c 0,-2.76 2.24,-5 5,-5 2.76,0 5,2.24 5,5 0,2.76 -2.24,5 -5,5 -2.76,0 -5,-2.24 -5,-5 z"
       copytype="single_stretched"
       prop_scale="0.58860778"
       scale_y_rel="false"
       spacing="0"
       normal_offset="0"
       tang_offset="0"
       prop_units="false"
       vertical_pattern="false"
       fuse_tolerance="0" />
    <inkscape:path-effect
       effect="skeletal"
       id="path-effect5008"
       is_visible="true"
       pattern="m 4.3140888,75.05952 c 0,0 50.1355702,-41.02065 81.7675402,-60.05131 C 96.925569,8.4842 96.289989,7.30372 104.29591,5.09639 113.60347,2.53018 127.72302,0 132.73613,0 l 3.45387,0 -3.74914,3.75 c -2.06203,2.0625 -4.35356,4.6729 -5.09231,5.80088 -1.31833,2.01296 -1.31749,2.07008 0.0457,3.08907 1.36036,1.01685 3.15778,0.97783 11.05009,-0.23987 1.82714,-0.28191 2.97183,-0.0213 4.17059,0.94935 l 1.65224,1.3379 -5.67236,2.34196 c -3.1198,1.28807 -9.65728,4.62414 -14.52773,7.4135 C 103.99985,35.93547 21.434629,87.16188 21.434629,87.16188 19.437599,87.16488 -10.589901,100.80113 3.9696188,74.4678 Z M 117.95407,9.68448 c 0.21734,-0.56639 1.23059,-1.5772 2.25166,-2.24623 1.59402,-1.04444 2.10641,-1.08266 3.62425,-0.27033 2.03568,1.08946 3.64795,0.11449 2.92522,-1.76894 -1.38137,-3.5998 -8.73184,-2.83476 -11.16228,1.16177 -0.73491,1.20846 -1.16729,2.63738 -0.96085,3.17537 0.49587,1.29222 2.82017,1.25609 3.322,-0.0516 z"
       copytype="single_stretched"
       prop_scale="1"
       scale_y_rel="false"
       spacing="0"
       normal_offset="0"
       tang_offset="0"
       prop_units="false"
       vertical_pattern="false"
       fuse_tolerance="0" />
    <inkscape:path-effect
       effect="skeletal"
       id="path-effect4999"
       is_visible="true"
       pattern="m 4.3140888,75.05952 c 0,0 50.1355702,-41.02065 81.7675402,-60.05131 C 96.925569,8.4842 96.289989,7.30372 104.29591,5.09639 113.60347,2.53018 127.72302,0 132.73613,0 l 3.45387,0 -3.74914,3.75 c -2.06203,2.0625 -4.35356,4.6729 -5.09231,5.80088 -1.31833,2.01296 -1.31749,2.07008 0.0457,3.08907 1.36036,1.01685 3.15778,0.97783 11.05009,-0.23987 1.82714,-0.28191 2.97183,-0.0213 4.17059,0.94935 l 1.65224,1.3379 -5.67236,2.34196 c -3.1198,1.28807 -9.65728,4.62414 -14.52773,7.4135 C 103.99985,35.93547 21.434629,87.16188 21.434629,87.16188 19.437599,87.16488 -10.589901,100.80113 3.9696188,74.4678 Z M 117.95407,9.68448 c 0.21734,-0.56639 1.23059,-1.5772 2.25166,-2.24623 1.59402,-1.04444 2.10641,-1.08266 3.62425,-0.27033 2.03568,1.08946 3.64795,0.11449 2.92522,-1.76894 -1.38137,-3.5998 -8.73184,-2.83476 -11.16228,1.16177 -0.73491,1.20846 -1.16729,2.63738 -0.96085,3.17537 0.49587,1.29222 2.82017,1.25609 3.322,-0.0516 z"
       copytype="single_stretched"
       prop_scale="1"
       scale_y_rel="false"
       spacing="0"
       normal_offset="0"
       tang_offset="0"
       prop_units="false"
       vertical_pattern="false"
       fuse_tolerance="0" />
    <inkscape:path-effect
       effect="skeletal"
       id="path-effect4990"
       is_visible="true"
       pattern="m 4.3140888,75.05952 c 0,0 50.1355702,-41.02065 81.7675402,-60.05131 C 96.925569,8.4842 96.289989,7.30372 104.29591,5.09639 113.60347,2.53018 127.72302,0 132.73613,0 l 3.45387,0 -3.74914,3.75 c -2.06203,2.0625 -4.35356,4.6729 -5.09231,5.80088 -1.31833,2.01296 -1.31749,2.07008 0.0457,3.08907 1.36036,1.01685 3.15778,0.97783 11.05009,-0.23987 1.82714,-0.28191 2.97183,-0.0213 4.17059,0.94935 l 1.65224,1.3379 -5.67236,2.34196 c -3.1198,1.28807 -9.65728,4.62414 -14.52773,7.4135 C 103.99985,35.93547 21.434629,87.16188 21.434629,87.16188 19.437599,87.16488 -10.589901,100.80113 3.9696188,74.4678 Z M 117.95407,9.68448 c 0.21734,-0.56639 1.23059,-1.5772 2.25166,-2.24623 1.59402,-1.04444 2.10641,-1.08266 3.62425,-0.27033 2.03568,1.08946 3.64795,0.11449 2.92522,-1.76894 -1.38137,-3.5998 -8.73184,-2.83476 -11.16228,1.16177 -0.73491,1.20846 -1.16729,2.63738 -0.96085,3.17537 0.49587,1.29222 2.82017,1.25609 3.322,-0.0516 z"
       copytype="single_stretched"
       prop_scale="1"
       scale_y_rel="false"
       spacing="0"
       normal_offset="0"
       tang_offset="0"
       prop_units="false"
       vertical_pattern="false"
       fuse_tolerance="0" />
    <inkscape:path-effect
       effect="skeletal"
       id="path-effect4959"
       is_visible="true"
       pattern="M 11.171689,17.495927 C 8.0771941,15.631834 5.0347118,13.585734 2.6196579,10.899052 1.3190385,9.4521486 0.12629261,7.7390229 0.00737277,5.7971168 -0.0729904,4.4848234 0.50948633,3.1767496 1.4673532,2.276159 c 4e-7,-2e-7 8e-7,-4e-7 1.2e-6,-6e-7 C 2.4757138,1.3280945 3.7860613,0.74430786 5.132119,0.42221683 7.4513909,-0.13275071 9.8764795,-0.04918479 12.252293,0.1570265 c 2.686894,0.23321196 5.34973,0.68644232 8.002132,1.1748598 10e-7,3e-7 2e-6,4e-7 3e-6,5e-7 2.314711,0.4262346 4.620094,0.9112919 6.950873,1.2384528 0.821351,0.1152893 1.647686,0.2164269 2.477081,0.2129304 0.511656,-0.00216 1.060345,-0.00844 1.489307,-0.2873432"
       copytype="single_stretched"
       prop_scale="1"
       scale_y_rel="false"
       spacing="0"
       normal_offset="0"
       tang_offset="0"
       prop_units="false"
       vertical_pattern="false"
       fuse_tolerance="0" />
    <inkscape:path-effect
       effect="skeletal"
       id="path-effect4949"
       is_visible="true"
       pattern="M 11.171689,17.495927 C 8.0771941,15.631834 5.0347118,13.585734 2.6196579,10.899052 1.3190385,9.4521486 0.12629261,7.7390229 0.00737277,5.7971168 -0.0729904,4.4848234 0.50948633,3.1767496 1.4673532,2.276159 c 4e-7,-2e-7 8e-7,-4e-7 1.2e-6,-6e-7 C 2.4757138,1.3280945 3.7860613,0.74430786 5.132119,0.42221683 7.4513909,-0.13275071 9.8764795,-0.04918479 12.252293,0.1570265 c 2.686894,0.23321196 5.34973,0.68644232 8.002132,1.1748598 10e-7,3e-7 2e-6,4e-7 3e-6,5e-7 2.314711,0.4262346 4.620094,0.9112919 6.950873,1.2384528 0.821351,0.1152893 1.647686,0.2164269 2.477081,0.2129304 0.511656,-0.00216 1.060345,-0.00844 1.489307,-0.2873432"
       copytype="single_stretched"
       prop_scale="1"
       scale_y_rel="false"
       spacing="0"
       normal_offset="0"
       tang_offset="0"
       prop_units="false"
       vertical_pattern="false"
       fuse_tolerance="0" />
    <inkscape:path-effect
       effect="skeletal"
       id="path-effect4939"
       is_visible="true"
       pattern="M 11.171689,17.495927 C 8.0771941,15.631834 5.0347118,13.585734 2.6196579,10.899052 1.3190385,9.4521486 0.12629261,7.7390229 0.00737277,5.7971168 -0.0729904,4.4848234 0.50948633,3.1767496 1.4673532,2.276159 c 4e-7,-2e-7 8e-7,-4e-7 1.2e-6,-6e-7 C 2.4757138,1.3280945 3.7860613,0.74430786 5.132119,0.42221683 7.4513909,-0.13275071 9.8764795,-0.04918479 12.252293,0.1570265 c 2.686894,0.23321196 5.34973,0.68644232 8.002132,1.1748598 10e-7,3e-7 2e-6,4e-7 3e-6,5e-7 2.314711,0.4262346 4.620094,0.9112919 6.950873,1.2384528 0.821351,0.1152893 1.647686,0.2164269 2.477081,0.2129304 0.511656,-0.00216 1.060345,-0.00844 1.489307,-0.2873432"
       copytype="single_stretched"
       prop_scale="1"
       scale_y_rel="false"
       spacing="0"
       normal_offset="0"
       tang_offset="0"
       prop_units="false"
       vertical_pattern="false"
       fuse_tolerance="0" />
    <inkscape:path-effect
       effect="skeletal"
       id="path-effect4929"
       is_visible="true"
       pattern="M 11.171689,17.495927 C 8.0771941,15.631834 5.0347118,13.585734 2.6196579,10.899052 1.3190385,9.4521486 0.12629261,7.7390229 0.00737277,5.7971168 -0.0729904,4.4848234 0.50948633,3.1767496 1.4673532,2.276159 c 4e-7,-2e-7 8e-7,-4e-7 1.2e-6,-6e-7 C 2.4757138,1.3280945 3.7860613,0.74430786 5.132119,0.42221683 7.4513909,-0.13275071 9.8764795,-0.04918479 12.252293,0.1570265 c 2.686894,0.23321196 5.34973,0.68644232 8.002132,1.1748598 10e-7,3e-7 2e-6,4e-7 3e-6,5e-7 2.314711,0.4262346 4.620094,0.9112919 6.950873,1.2384528 0.821351,0.1152893 1.647686,0.2164269 2.477081,0.2129304 0.511656,-0.00216 1.060345,-0.00844 1.489307,-0.2873432"
       copytype="single_stretched"
       prop_scale="1"
       scale_y_rel="false"
       spacing="0"
       normal_offset="0"
       tang_offset="0"
       prop_units="false"
       vertical_pattern="false"
       fuse_tolerance="0" />
    <inkscape:path-effect
       effect="skeletal"
       id="path-effect4885"
       is_visible="true"
       pattern="M 0,5 C 0,2.24 2.24,0 5,0 7.76,0 10,2.24 10,5 10,7.76 7.76,10 5,10 2.24,10 0,7.76 0,5 Z"
       copytype="single_stretched"
       prop_scale="1"
       scale_y_rel="false"
       spacing="0"
       normal_offset="0"
       tang_offset="0"
       prop_units="false"
       vertical_pattern="false"
       fuse_tolerance="0" />
    <inkscape:path-effect
       effect="skeletal"
       id="path-effect4881"
       is_visible="true"
       pattern="m 131.10583,-193.67386 c 0,-2.76 2.24,-5 5,-5 2.76,0 5,2.24 5,5 0,2.76 -2.24,5 -5,5 -2.76,0 -5,-2.24 -5,-5 z"
       copytype="single_stretched"
       prop_scale="0.82466713"
       scale_y_rel="false"
       spacing="0"
       normal_offset="0"
       tang_offset="0"
       prop_units="false"
       vertical_pattern="false"
       fuse_tolerance="0" />
    <inkscape:path-effect
       effect="skeletal"
       id="path-effect4829"
       is_visible="true"
       pattern="m -41.033764,-95.764656 h 1"
       copytype="single_stretched"
       prop_scale="0.58860778"
       scale_y_rel="false"
       spacing="0"
       normal_offset="0"
       tang_offset="0"
       prop_units="false"
       vertical_pattern="false"
       fuse_tolerance="0" />
    <inkscape:path-effect
       effect="skeletal"
       id="path-effect4811"
       is_visible="true"
       pattern="M 0,5 C 0,2.24 2.24,0 5,0 7.76,0 10,2.24 10,5 10,7.76 7.76,10 5,10 2.24,10 0,7.76 0,5 Z"
       copytype="single_stretched"
       prop_scale="1"
       scale_y_rel="false"
       spacing="0"
       normal_offset="0"
       tang_offset="0"
       prop_units="false"
       vertical_pattern="false"
       fuse_tolerance="0" />
    <inkscape:path-effect
       effect="skeletal"
       id="path-effect4803"
       is_visible="true"
       pattern="m -8.0337644,-126.90752 c 0,-2.76 2.24,-5 5,-5 2.75999996,0 5,2.24 5,5 0,2.76 -2.24000004,5 -5,5 -2.76,0 -5,-2.24 -5,-5 z"
       copytype="single_stretched"
       prop_scale="0.58860778"
       scale_y_rel="false"
       spacing="0"
       normal_offset="0"
       tang_offset="0"
       prop_units="false"
       vertical_pattern="false"
       fuse_tolerance="0" />
    <inkscape:path-effect
       effect="skeletal"
       id="path-effect4795"
       is_visible="true"
       pattern="m -8.0337644,-126.90752 c 0,-2.76 2.24,-5 5,-5 2.75999996,0 5,2.24 5,5 0,2.76 -2.24000004,5 -5,5 -2.76,0 -5,-2.24 -5,-5 z"
       copytype="single_stretched"
       prop_scale="0.58860778"
       scale_y_rel="false"
       spacing="0"
       normal_offset="0"
       tang_offset="0"
       prop_units="false"
       vertical_pattern="false"
       fuse_tolerance="0" />
    <inkscape:path-effect
       effect="skeletal"
       id="path-effect4791"
       is_visible="true"
       pattern="M 0,0 1,0"
       copytype="single_stretched"
       prop_scale="1"
       scale_y_rel="false"
       spacing="0"
       normal_offset="0"
       tang_offset="0"
       prop_units="false"
       vertical_pattern="false"
       fuse_tolerance="0" />
    <inkscape:path-effect
       effect="skeletal"
       id="path-effect4786"
       is_visible="true"
       pattern="M 0,0 1,0"
       copytype="single_stretched"
       prop_scale="1"
       scale_y_rel="false"
       spacing="0"
       normal_offset="0"
       tang_offset="0"
       prop_units="false"
       vertical_pattern="false"
       fuse_tolerance="0" />
    <inkscape:path-effect
       effect="skeletal"
       id="path-effect4782"
       is_visible="true"
       pattern="M 0,0 1,0"
       copytype="single_stretched"
       prop_scale="1"
       scale_y_rel="false"
       spacing="0"
       normal_offset="0"
       tang_offset="0"
       prop_units="false"
       vertical_pattern="false"
       fuse_tolerance="0" />
    <inkscape:path-effect
       effect="skeletal"
       id="path-effect4778"
       is_visible="true"
       pattern="M 0,0 1,0"
       copytype="single_stretched"
       prop_scale="1"
       scale_y_rel="false"
       spacing="0"
       normal_offset="0"
       tang_offset="0"
       prop_units="false"
       vertical_pattern="false"
       fuse_tolerance="0" />
    <inkscape:path-effect
       effect="skeletal"
       id="path-effect4774"
       is_visible="true"
       pattern="M 0,0 1,0"
       copytype="single_stretched"
       prop_scale="1"
       scale_y_rel="false"
       spacing="0"
       normal_offset="0"
       tang_offset="0"
       prop_units="false"
       vertical_pattern="false"
       fuse_tolerance="0" />
    <inkscape:path-effect
       effect="skeletal"
       id="path-effect4770"
       is_visible="true"
       pattern="M 0,0 1,0"
       copytype="single_stretched"
       prop_scale="1"
       scale_y_rel="false"
       spacing="0"
       normal_offset="0"
       tang_offset="0"
       prop_units="false"
       vertical_pattern="false"
       fuse_tolerance="0" />
    <inkscape:path-effect
       effect="skeletal"
       id="path-effect4766"
       is_visible="true"
       pattern="M 0,0 1,0"
       copytype="single_stretched"
       prop_scale="1"
       scale_y_rel="false"
       spacing="0"
       normal_offset="0"
       tang_offset="0"
       prop_units="false"
       vertical_pattern="false"
       fuse_tolerance="0" />
    <inkscape:path-effect
       effect="skeletal"
       id="path-effect4762"
       is_visible="true"
       pattern="M 0,0 1,0"
       copytype="single_stretched"
       prop_scale="1"
       scale_y_rel="false"
       spacing="0"
       normal_offset="0"
       tang_offset="0"
       prop_units="false"
       vertical_pattern="false"
       fuse_tolerance="0" />
    <inkscape:path-effect
       effect="skeletal"
       id="path-effect4758"
       is_visible="true"
       pattern="M 0,0 1,0"
       copytype="single_stretched"
       prop_scale="1"
       scale_y_rel="false"
       spacing="0"
       normal_offset="0"
       tang_offset="0"
       prop_units="false"
       vertical_pattern="false"
       fuse_tolerance="0" />
    <inkscape:path-effect
       effect="skeletal"
       id="path-effect4754"
       is_visible="true"
       pattern="M 0,0 1,0"
       copytype="single_stretched"
       prop_scale="1"
       scale_y_rel="false"
       spacing="0"
       normal_offset="0"
       tang_offset="0"
       prop_units="false"
       vertical_pattern="false"
       fuse_tolerance="0" />
    <inkscape:path-effect
       effect="skeletal"
       id="path-effect4750"
       is_visible="true"
       pattern="M 0,0 1,0"
       copytype="single_stretched"
       prop_scale="1"
       scale_y_rel="false"
       spacing="0"
       normal_offset="0"
       tang_offset="0"
       prop_units="false"
       vertical_pattern="false"
       fuse_tolerance="0" />
    <inkscape:path-effect
       effect="skeletal"
       id="path-effect4746"
       is_visible="true"
       pattern="M 0,0 1,0"
       copytype="single_stretched"
       prop_scale="1"
       scale_y_rel="false"
       spacing="0"
       normal_offset="0"
       tang_offset="0"
       prop_units="false"
       vertical_pattern="false"
       fuse_tolerance="0" />
    <inkscape:path-effect
       effect="skeletal"
       id="path-effect4742"
       is_visible="true"
       pattern="M 0,0 1,0"
       copytype="single_stretched"
       prop_scale="1"
       scale_y_rel="false"
       spacing="0"
       normal_offset="0"
       tang_offset="0"
       prop_units="false"
       vertical_pattern="false"
       fuse_tolerance="0" />
    <inkscape:path-effect
       effect="skeletal"
       id="path-effect4738"
       is_visible="true"
       pattern="M 0,5 C 0,2.24 2.24,0 5,0 7.76,0 10,2.24 10,5 10,7.76 7.76,10 5,10 2.24,10 0,7.76 0,5 Z"
       copytype="single_stretched"
       prop_scale="1"
       scale_y_rel="false"
       spacing="0"
       normal_offset="0"
       tang_offset="0"
       prop_units="false"
       vertical_pattern="false"
       fuse_tolerance="0" />
    <inkscape:path-effect
       effect="skeletal"
       id="path-effect4734"
       is_visible="true"
       pattern="M 0,5 C 0,2.24 2.24,0 5,0 7.76,0 10,2.24 10,5 10,7.76 7.76,10 5,10 2.24,10 0,7.76 0,5 Z"
       copytype="single_stretched"
       prop_scale="1"
       scale_y_rel="false"
       spacing="0"
       normal_offset="0"
       tang_offset="0"
       prop_units="false"
       vertical_pattern="false"
       fuse_tolerance="0" />
    <inkscape:path-effect
       effect="skeletal"
       id="path-effect4730"
       is_visible="true"
       pattern="M 0,5 C 0,2.24 2.24,0 5,0 7.76,0 10,2.24 10,5 10,7.76 7.76,10 5,10 2.24,10 0,7.76 0,5 Z"
       copytype="single_stretched"
       prop_scale="1"
       scale_y_rel="false"
       spacing="0"
       normal_offset="0"
       tang_offset="0"
       prop_units="false"
       vertical_pattern="false"
       fuse_tolerance="0" />
    <inkscape:path-effect
       effect="powerstroke"
       id="path-effect4726"
       is_visible="true"
       offset_points="0,0.5"
       sort_points="true"
       interpolator_type="CubicBezierJohan"
       interpolator_beta="0.2"
       start_linecap_type="zerowidth"
       linejoin_type="round"
       miter_limit="4"
       end_linecap_type="zerowidth"
       cusp_linecap_type="round" />
    <inkscape:path-effect
       effect="powerstroke"
       id="path-effect4722"
       is_visible="true"
       offset_points="0,0.5"
       sort_points="true"
       interpolator_type="CubicBezierJohan"
       interpolator_beta="0.2"
       start_linecap_type="zerowidth"
       linejoin_type="round"
       miter_limit="4"
       end_linecap_type="zerowidth"
       cusp_linecap_type="round" />
    <inkscape:path-effect
       effect="skeletal"
       id="path-effect4714"
       is_visible="true"
       pattern="M 0,5 C 0,2.24 2.24,0 5,0 7.76,0 10,2.24 10,5 10,7.76 7.76,10 5,10 2.24,10 0,7.76 0,5 Z"
       copytype="single_stretched"
       prop_scale="1"
       scale_y_rel="false"
       spacing="0"
       normal_offset="0"
       tang_offset="0"
       prop_units="false"
       vertical_pattern="false"
       fuse_tolerance="0" />
    <inkscape:path-effect
       effect="skeletal"
       id="path-effect4710"
       is_visible="true"
       pattern="M 0,5 C 0,2.24 2.24,0 5,0 7.76,0 10,2.24 10,5 10,7.76 7.76,10 5,10 2.24,10 0,7.76 0,5 Z"
       copytype="single_stretched"
       prop_scale="1"
       scale_y_rel="false"
       spacing="0"
       normal_offset="0"
       tang_offset="0"
       prop_units="false"
       vertical_pattern="false"
       fuse_tolerance="0" />
    <inkscape:path-effect
       effect="skeletal"
       id="path-effect4706"
       is_visible="true"
       pattern="M 0,5 C 0,2.24 2.24,0 5,0 7.76,0 10,2.24 10,5 10,7.76 7.76,10 5,10 2.24,10 0,7.76 0,5 Z"
       copytype="single_stretched"
       prop_scale="1"
       scale_y_rel="false"
       spacing="0"
       normal_offset="0"
       tang_offset="0"
       prop_units="false"
       vertical_pattern="false"
       fuse_tolerance="0" />
    <inkscape:path-effect
       effect="spiro"
       id="path-effect4704"
       is_visible="true" />
    <inkscape:path-effect
       effect="skeletal"
       id="path-effect4694"
       is_visible="true"
       pattern="M 0,5 C 0,2.24 2.24,0 5,0 7.76,0 10,2.24 10,5 10,7.76 7.76,10 5,10 2.24,10 0,7.76 0,5 Z"
       copytype="single_stretched"
       prop_scale="1"
       scale_y_rel="false"
       spacing="0"
       normal_offset="0"
       tang_offset="0"
       prop_units="false"
       vertical_pattern="false"
       fuse_tolerance="0" />
    <inkscape:path-effect
       effect="spiro"
       id="path-effect4692"
       is_visible="true" />
    <inkscape:path-effect
       effect="skeletal"
       id="path-effect4829-3"
       is_visible="true"
       pattern="m -37.611804,-60.507629 h 1"
       copytype="single_stretched"
       prop_scale="0.58860778"
       scale_y_rel="false"
       spacing="0"
       normal_offset="0"
       tang_offset="0"
       prop_units="false"
       vertical_pattern="false"
       fuse_tolerance="0" />
  </defs>
  <sodipodi:namedview
     id="base"
     pagecolor="#ffffff"
     bordercolor="#666666"
     borderopacity="1.0"
     inkscape:pageopacity="0.0"
     inkscape:pageshadow="2"
     inkscape:zoom="0.7"
     inkscape:cx="380.21318"
     inkscape:cy="959.22406"
     inkscape:document-units="px"
     inkscape:current-layer="layer4"
     showgrid="false"
     showguides="false"
     inkscape:window-width="1920"
     inkscape:window-height="1019"
     inkscape:window-x="0"
     inkscape:window-y="0"
     inkscape:window-maximized="1" />
  <metadata
     id="metadata7">
    <rdf:RDF>
      <cc:Work
         rdf:about="">
        <dc:format>image/svg+xml</dc:format>
        <dc:type
           rdf:resource="http://purl.org/dc/dcmitype/StillImage" />
        <dc:title></dc:title>
      </cc:Work>
    </rdf:RDF>
  </metadata>
  <g
     inkscape:groupmode="layer"
     id="layer2"
     inkscape:label="Lingua">
    <ellipse
       style="fill:#000000;stroke:#000000;stroke-width:0.94762361;stroke-miterlimit:4;stroke-dasharray:none;stroke-opacity:1"
       id="path4875"
       cx="569.7522"
       cy="196.39841"
       rx="5.7014065"
       ry="4.091228"
       transform="matrix(0.99488428,0.10102114,-0.34408389,0.93893891,0,0)" />
    <ellipse
       style="fill:#ffffff;fill-opacity:1;stroke:#ffffff;stroke-width:1.68039262;stroke-miterlimit:4;stroke-dasharray:none;stroke-opacity:1"
       id="path4877"
       cx="520.59839"
       cy="346.53455"
       rx="1.315927"
       ry="0.57377666"
       transform="matrix(0.97957504,-0.20107895,-0.02467265,0.99969558,0,0)" />
    <path
       style="fill:#cd0000;fill-opacity:1;fill-rule:evenodd;stroke:none;stroke-width:0.82466716px;stroke-linecap:butt;stroke-linejoin:miter;stroke-opacity:1"
       d="m 589.25252,259.86998 c -0.0423,-0.10902 0.38839,-0.52701 1.49274,-0.74841 1.22713,-0.24601 2.69119,-0.13972 4.87363,0.41164 1.54063,0.33774 4.25611,1.19402 6.12193,0.90027 0.56988,-0.0692 1.15786,-0.13975 1.76375,-0.2115 3.48766,-0.37882 6.14223,-2.0688 10.60626,-4.37514 0,0 1e-5,0 1e-5,0 12.48552,-6.62074 31.50411,-17.79314 48.76197,-34.63234 10.58729,-10.32813 21.14573,-23.41187 28.98107,-39.14879 -10e-6,0 10e-6,-2e-5 10e-6,-2e-5 5.98788,-12.01557 10.45145,-25.69662 12.22166,-40.35229 1.48208,-12.259 1.10553,-25.21283 -1.65559,-38.03873 -2.38709,-11.065631 -6.52102,-22.078908 -12.73779,-32.019557 -5.39728,-8.608482 -12.35642,-16.505764 -20.88195,-22.231808 -2.48651,-1.671988 -5.11606,-3.160088 -7.85154,-4.42496 -5.81858,-2.690494 -12.01091,-4.322837 -18.20975,-4.637257 -10.18715,-0.592841 -20.43616,2.419137 -29.30464,7.292568 -9.66431,5.377786 -17.62577,13.238148 -22.04376,22.577761 -6.7143,14.237464 -9.36387,29.592172 -5.50548,42.987333 3.28491,11.71605 11.60631,21.31007 21.5445,25.74042 5.97414,2.66976 11.89659,4.50642 17.77092,4.88482 4.75446,0.30909 9.36904,-0.32689 13.36261,-2.04416 3.81792,-1.60809 7.13321,-4.20506 9.73008,-7.20253 2.87598,-3.31286 4.96028,-7.2106 6.44145,-11.09728 2.18075,-5.77715 2.73555,-11.63314 1.91163,-16.85233 0,0 0,-1e-5 0,-1e-5 -0.84861,-5.53163 -3.1799,-10.464346 -5.74377,-14.363386 -3.2066,-4.868078 -7.02382,-8.569391 -10.1855,-11.181062 -6.60927,-5.443917 -11.1126,-7.099944 -10.96671,-7.501042 0.0841,-0.231166 4.95454,0.395341 12.44012,5.541546 3.54094,2.427975 7.84138,6.039637 11.61716,11.096946 3.03611,4.061336 5.87189,9.360549 7.14593,15.632448 0,0 10e-6,1e-5 10e-6,1e-5 1.185,5.95268 0.85389,12.66997 -1.4204,19.34377 -1.4824,4.39622 -3.72064,8.90056 -6.98238,12.93638 -2.97885,3.67832 -6.88994,6.9142 -11.58891,9.07177 -4.93604,2.23084 -10.48341,3.18812 -16.11337,2.9167 -6.86245,-0.33363 -13.60946,-2.20823 -20.12388,-5.02192 -11.92548,-5.16943 -21.85152,-16.06189 -25.91089,-29.86604 -4.47749,-15.570445 -1.93646,-32.838971 5.45156,-48.395051 5.22502,-11.032816 14.23604,-20.176085 25.22136,-26.295462 9.92865,-5.592328 21.62506,-8.997826 33.68531,-8.418368 7.32677,0.39831 14.53178,2.268536 21.23635,5.358739 3.15208,1.452821 6.16648,3.162957 9.00661,5.090099 9.6525,6.556597 17.37428,15.297137 23.20242,24.75142 6.72983,10.891638 11.13637,22.794964 13.59252,34.686043 2.85334,13.7863 3.1232,27.60808 1.38648,40.63937 -2.07892,15.58699 -7.01449,29.99003 -13.55872,42.54858 -1e-5,1e-5 -1e-5,1e-5 -1e-5,2e-5 -8.57526,16.44242 -19.88159,29.83302 -31.15592,40.22495 -18.42015,16.97442 -38.16363,27.51071 -51.26583,33.46452 0,0 -10e-6,10e-6 -10e-6,10e-6 -4.41016,2.05554 -7.80394,3.66248 -11.9182,3.86209 -0.60979,0.0203 -1.20169,0.0391 -1.77549,0.0565 -2.72405,0.0474 -5.37218,-1.13618 -6.78467,-1.67858 -2.25822,-0.77876 -3.0525,-1.09236 -4.33372,-1.19122 -0.96664,-0.0746 -1.49891,0.0471 -1.55117,-0.0875 z"
       id="path4879"
       inkscape:path-effect="#path-effect4881"
       inkscape:original-d="m 589.25252,259.86998 c 3.59812,-1.39682 8.54391,2.06592 12.57893,1.76039 l 1.76962,-0.134 c 4.08205,-0.30908 8.06122,-2.54526 11.26224,-4.11862 162.42392,-79.83352 82.5812,-261.1428835 -3.40288,-213.269278 -8.08512,4.50158 -17.62118,11.736597 -23.63256,24.436611 -16.04744,33.902907 -4.645,63.442137 18.24919,73.494427 28.12762,12.35015 44.68112,0.13802 51.05678,-17.68103 9.25278,-25.860272 -12.86848,-45.476944 -27.38358,-50.756289"
       inkscape:connector-curvature="0"
       sodipodi:nodetypes="csssssssc" />
    <path
       style="fill:#ff9955;fill-opacity:0.99215686;fill-rule:evenodd;stroke:#000000;stroke-width:3.11962104;stroke-linecap:butt;stroke-linejoin:miter;stroke-miterlimit:4;stroke-dasharray:none;stroke-opacity:1"
       d="m 478.93408,230.94163 c -0.76763,-1.983 -1.44545,-4.03192 -1.60038,-6.15266 -0.0834,-1.14212 -0.0207,-2.36921 0.62412,-3.31556 0.43576,-0.63953 1.17839,-1.03811 1.94875,-1.11175 l 0,0 c 0.81097,-0.0775 1.6311,0.12331 2.37349,0.45878 2.72574,1.23168 4.71438,3.64551 6.70775,5.87557 0.92326,1.03288 1.82096,2.08976 2.78741,3.08233 0.34057,0.34978 0.68856,0.69477 1.0757,0.99218 0.23883,0.18347 0.49637,0.37838 0.79651,0.40328"
       id="path4827"
       inkscape:path-effect="#path-effect4829"
       inkscape:original-d="m 478.93408,230.94163 c -4.01679,-10.37641 0.29811,-11.49846 3.34598,-10.12119 4.43782,2.00532 9.6604,10.21175 11.36737,10.35336"
       inkscape:connector-curvature="0"
       sodipodi:nodetypes="csc" />
  </g>
  <g
     inkscape:groupmode="layer"
     id="layer1"
     inkscape:label="Layer 1">
    <path
       style="fill:#000000;fill-rule:evenodd;stroke:none;stroke-width:0.58860779px;stroke-linecap:butt;stroke-linejoin:miter;stroke-opacity:1"
       d="m 437.65142,252.16515 c -0.33585,-0.33678 4.30932,-7.39625 16.78851,-13.76418 6.06799,-3.0991 13.39084,-5.75643 22.22427,-7.62816 0,0 0,0 0,0 12.79526,-2.71177 27.07074,-3.59147 42.96283,-2.34576 2.527,0.19808 5.02265,0.44415 7.48027,0.73016 18.17688,2.09537 33.51115,6.23097 46.13714,11.29558 7.03229,2.81702 12.48499,5.65856 16.95886,8.61556 7.6286,5.00257 10.40462,9.50311 9.86864,9.93235 -0.45693,0.36593 -3.89521,-3.20513 -11.48397,-7.19412 -4.62496,-2.40636 -9.9022,-4.65879 -16.93738,-7.0517 -12.59254,-4.27645 -27.40448,-7.80956 -45.20035,-9.76968 -2.39693,-0.26131 -4.82681,-0.49145 -7.28242,-0.68281 -15.47857,-1.20621 -29.11957,-0.64441 -41.52907,1.51368 0,0 -1e-5,0 -1e-5,0 -8.5511,1.48713 -15.56531,3.58608 -21.56831,6.09423 -11.99179,5.01464 -17.89614,10.77918 -18.41901,10.25485 z"
       id="path4793"
       inkscape:path-effect="#path-effect4795"
       inkscape:original-d="m 437.65142,252.16515 c 39.6549,-39.54443 143.87786,-16.31794 162.42052,6.83555"
       inkscape:connector-curvature="0"
       sodipodi:nodetypes="cc" />
    <path
       style="fill:#000000;fill-rule:evenodd;stroke:none;stroke-width:0.58860779px;stroke-linecap:butt;stroke-linejoin:miter;stroke-opacity:1"
       d="m 596.42598,268.06422 c -0.21054,1.14404 -19.00964,-2.97451 -45.07117,1.47177 -10.45042,1.77257 -21.57146,5.07881 -33.00405,10.35782 -1.21449,0.5608 -2.41403,1.13538 -3.59818,1.72244 -12.18158,6.03482 -23.14355,13.55716 -32.01995,20.09899 -18.58565,13.70471 -30.19009,24.04034 -31.17851,22.9048 -0.40451,-0.46471 9.91901,-12.15356 28.11072,-26.87375 8.74206,-7.07732 19.76145,-15.02325 32.4654,-21.39154 1.233,-0.61765 2.48371,-1.22012 3.75166,-1.80596 11.93075,-5.51247 23.68786,-8.77268 34.6801,-10.24767 27.9788,-3.7278 45.90883,3.51938 45.86398,3.7631 z"
       id="path4801"
       inkscape:path-effect="#path-effect4803"
       inkscape:original-d="m 596.42598,268.06422 c -67.11327,-12.3512 -105.8883,22.62268 -144.87186,56.55582"
       inkscape:connector-curvature="0"
       sodipodi:nodetypes="cc" />
    <path
       style="fill:none;fill-rule:evenodd;stroke:#000000;stroke-width:1.81497657;stroke-linecap:round;stroke-linejoin:miter;stroke-miterlimit:4;stroke-dasharray:none;stroke-opacity:1"
       d="m 596.18776,267.2449 c 1.31027,-4.21596 -4.93565,-4.97665 -6.93524,-7.37492"
       id="path4819"
       inkscape:connector-curvature="0"
       sodipodi:nodetypes="cc" />
    <path
       style="fill:none;fill-rule:evenodd;stroke:#000000;stroke-width:1.81350064;stroke-linecap:round;stroke-linejoin:round;stroke-miterlimit:4;stroke-dasharray:none;stroke-opacity:1"
       d="m 599.15269,258.95239 c -3.71549,-1.17426 -9.86961,0.78805 -9.99901,0.78927"
       id="path4821"
       inkscape:connector-curvature="0"
       sodipodi:nodetypes="cc" />
    <path
       style="fill:#ff9955;fill-opacity:0.99215686;fill-rule:evenodd;stroke:#000000;stroke-width:3.70822906;stroke-linecap:butt;stroke-linejoin:miter;stroke-miterlimit:4;stroke-dasharray:none;stroke-opacity:1"
       d="m 464.94825,241.681 c -1.34087,-4.54207 -2.89991,-9.92528 -0.19413,-13.81206 0.67262,-0.9662 1.72397,-1.6626 2.8812,-1.87891 l 0,0 c 1.09727,-0.2051 2.24685,-0.0351 3.28329,0.3794 2.45262,0.98094 4.47839,2.78833 6.46979,4.52383 l 0,0 c 2.0532,1.78937 4.01231,3.68563 5.89609,5.65257 0,0 0,0 0,0 0.36267,0.37868 0.73427,0.74866 1.10385,1.1206 0,0 10e-6,0 10e-6,0 0.14881,0.14975 0.36539,0.27145 0.41483,0.4767 0.008,0.0327 -0.0378,0.0442 -0.0713,0.041 -0.0918,-0.009 -0.17997,-0.0395 -0.26799,-0.0669 -0.38875,-0.12122 -0.77162,-0.26051 -1.15858,-0.38728"
       id="path4827-6"
       inkscape:path-effect="#path-effect4829-3"
       inkscape:original-d="m 464.94825,241.681 c -4.36019,-14.76969 1.85239,-16.95861 5.97036,-15.31157 3.57607,1.43027 9.55474,7.24115 12.36588,10.1764 1.90221,1.98617 2.14069,1.8786 0.0208,1.18411"
       inkscape:connector-curvature="0"
       sodipodi:nodetypes="cssc" />
    <path
       style="fill:none;fill-rule:evenodd;stroke:#000000;stroke-width:1.76582325;stroke-linecap:round;stroke-linejoin:round;stroke-miterlimit:4;stroke-dasharray:none;stroke-opacity:1"
       d="m 584.32595,254.31864 c 3.37338,-1.6767 5.20591,0.79929 5.31297,1.72372"
       id="path4887"
       inkscape:connector-curvature="0"
       sodipodi:nodetypes="cc" />
  </g>
  <g
     inkscape:groupmode="layer"
     id="layer3"
     inkscape:label="Tinta">
    <path
       style="opacity:0.98999999;fill:#ff9955;fill-opacity:1;stroke:none;stroke-width:0.05886078;stroke-linecap:round;stroke-linejoin:round;stroke-miterlimit:4;stroke-dasharray:none;stroke-opacity:1"
       d="m 531.23121,241.87966 c 0,0 16.56085,-4.3776 36.22915,3.01645 6.66465,2.50549 9.15978,1.76781 13.49493,3.60011 5.03997,2.13024 12.2291,5.95087 14.48064,7.6957 l 1.55124,1.20213 -2.94008,0.31615 c -1.61705,0.1739 -3.52072,0.50472 -4.23038,0.73519 -1.26643,0.4113 -1.28518,0.4363 -1.01432,1.35122 0.27034,0.91304 1.09068,1.52177 5.04328,3.74235 0.91507,0.51406 1.3419,1.02511 1.55511,1.86197 l 0.2939,1.15339 -3.33219,-0.9619 c -1.83267,-0.52906 -5.88643,-1.36235 -9.00831,-1.85175 -12.86279,-2.01648 -52.53364,-4.7635 -52.53364,-4.7635 -0.8981,-0.69359 -22.24235,-9.92763 -6.88171,-16.24341 z m 54.3214,13.35369 c 0.28735,-0.1692 1.08105,-0.25348 1.76376,-0.18728 1.06582,0.10337 1.30874,0.26513 1.71832,1.14457 0.54933,1.17948 1.60006,1.31918 1.90639,0.25347 0.5855,-2.03689 -2.97211,-4.26455 -5.4025,-3.38288 -0.7349,0.2666 -1.40777,0.7338 -1.49528,1.03823 -0.21018,0.73117 0.84586,1.52454 1.5093,1.13392 z"
       id="path4969"
       inkscape:connector-curvature="0"
       sodipodi:nodetypes="cssscssssccssccccssssscc" />
    <path
       style="fill:#ff9955;fill-opacity:0.99215686;fill-rule:evenodd;stroke:#ff9955;stroke-width:2.52159548;stroke-linecap:butt;stroke-linejoin:miter;stroke-miterlimit:4;stroke-dasharray:none;stroke-opacity:0.99215686"
       d="m 447.85152,316.26873 c -0.94678,-0.37855 1.14921,-7.39506 8.91837,-16.4052 4.55016,-5.31955 10.44834,-10.87882 18.09942,-16.5226 5.60107,-4.15254 12.00369,-8.3046 19.07328,-11.89804 10.03118,-5.0988 19.76025,-8.23673 29.02665,-9.68427 0,0 10e-6,0 10e-6,0 7.83367,-1.19807 14.76368,-2.66221 20.34352,-3.485 3.21288,-0.47664 5.69391,-0.72179 8.01279,-0.72655 4.05812,-0.0281 6.12569,0.93368 6.02294,1.39085 -0.0966,0.42995 -2.12195,0.3565 -5.78402,1.0661 -2.31137,0.46241 -4.26479,0.9645 -7.51467,1.83368 -4.37278,1.1737 -13.1501,3.62762 -20.16511,5.05304 0,0 0,0 0,0 -8.66902,1.75223 -17.68273,4.9182 -27.26437,9.80928 -6.72772,3.43426 -12.97153,7.32969 -18.53708,11.14516 -7.60848,5.24327 -13.4516,10.11314 -18.31177,14.83119 -7.99367,7.83181 -11.17697,13.88943 -11.91996,13.59236 z"
       id="path5015"
       inkscape:path-effect="#path-effect5017"
       inkscape:original-d="m 447.85152,316.26873 c 7.27685,-18.19966 43.86403,-46.28745 75.57545,-51.94405 15.31907,-2.73257 27.38528,-6.85589 33.92152,-5.38676"
       inkscape:connector-curvature="0"
       sodipodi:nodetypes="csc" />
  </g>
  <g
     inkscape:groupmode="layer"
     id="layer4"
     inkscape:label="Tipografia">
    <a
       id="a90"
       transform="matrix(1.1760221,0,0,1.1760221,-185.74964,-18.314921)">
      <g
         aria-label="DEB"
         transform="matrix(1.2988439,0,0,1.6262754,67.711404,-77.653753)"
         style="font-style:normal;font-weight:normal;line-height:0.01%;font-family:sans-serif;letter-spacing:0px;word-spacing:0px;fill:#008000;fill-opacity:1;stroke:none;stroke-width:1px;stroke-linecap:butt;stroke-linejoin:miter;stroke-opacity:1"
         id="flowRoot4194">
        <path
           d="m 127.33789,158.11398 c -3.86719,2.92969 -8.47656,4.64844 -13.86719,5.15625 0.19532,-5.82031 0.39063,-12.38281 0.50782,-19.72656 l 0.27343,-19.72656 c 0.23438,-17.30469 0.50782,-30.468752 0.82032,-39.453127 0.0391,-0.195313 0.0391,-0.390625 0,-0.585938 4.49218,-0.3125 8.32031,0.234375 11.5625,1.601563 3.94531,1.679687 3.94544,5.578709 4.41419,9.367772 0.50781,3.90625 3.12487,14.18692 3.28112,19.42129 0.0391,1.91406 -0.0391,-2.69531 0,0 l 0.0781,6.875 0.0781,6.09375 0.0391,6.09375 c 0,4.60938 -2.66912,12.74814 -2.86443,16.26376 -0.3125,5.11719 -0.0653,5.29874 -4.32307,8.61905 z m 5.24724,-77.75571 c -4.49218,-2.070313 -12.31755,-3.181787 -18.29411,-2.7521 -1.01563,0.03906 -2.30469,0.195313 -3.82813,0.46875 -1.25,0.195313 -1.28328,1.721967 -1.51765,2.854779 -0.19531,1.09375 -0.90422,2.535847 -0.12297,3.434284 -0.19532,0.351563 0.0391,-0.507813 0,0 -0.19532,5.976562 -0.39063,12.734375 -0.54688,20.234377 l -0.27344,20.23437 c -0.27343,17.92969 -0.54687,31.40625 -0.85937,40.42969 0,0.35156 0.0391,0.70313 0.11719,1.01563 -0.0391,0.89843 0.65101,1.13109 1.15882,1.75609 0.54688,0.74219 0.87243,1.60328 1.84899,1.64234 7.14844,0.15625 13.51562,-1.64062 19.10156,-5.39062 6.01563,-4.02344 9.60938,-9.41406 10.78125,-16.17188 0.23438,-1.36718 0.39063,-2.96875 0.46875,-4.88281 l 0.0391,-2.46094 v -2.46093 c 0.0781,-4.53125 0.0781,-9.80469 0.0391,-15.85938 l -0.0391,-3.78906 -0.0391,-3.82813 c -0.0391,-2.92968 -0.0781,-5.46875 -0.15625,-7.61718 -0.19531,-5.74219 -0.58594,-10.820317 -1.17187,-15.195317 -0.74219,-5.429688 -1.2762,-9.122901 -6.70589,-11.661963 z"
           style="font-style:normal;font-variant:normal;font-weight:normal;font-stretch:normal;font-size:80px;line-height:1.25;font-family:'Papaya Sunrise';-inkscape-font-specification:'Papaya Sunrise';fill:#008000"
           id="path3766"
           inkscape:connector-curvature="0"
           sodipodi:nodetypes="ccccccccccccccccccccccccccccccccccccccc" />
        <path
           d="m 152.76758,164.98898 c 0,0.66407 0.15625,1.25 0.50781,1.71875 0.0391,0.82032 0.3125,1.52344 0.82031,2.07032 0.54688,0.58593 1.28907,0.89843 2.22657,0.89843 1.83593,0 3.94531,-0.0781 6.36718,-0.19531 l 6.36719,-0.35156 c 5.3125,-0.27344 9.57031,-0.35156 12.73438,-0.23438 0.97656,0.0391 1.71875,-0.23437 2.26562,-0.85937 0.50781,-0.58594 -0.2213,-1.14348 -0.2213,-1.9638 0,-0.82031 0.72911,-1.70808 0.2213,-2.29401 -0.54687,-0.66407 -1.28906,-1.01563 -2.26562,-1.05469 -3.00782,-0.11719 -6.79688,-0.0391 -11.36719,0.19531 l -5.70313,0.27344 c 0,0 -2.35654,-0.11189 -3.91904,-0.0728 0,-16.36719 -1.86218,-28.71627 -2.01846,-37.70065 h 15.50782 c 0.9375,0 1.67968,-0.3125 2.26562,-0.97656 0.50781,-0.58594 0.0131,-1.28906 0.0131,-2.10938 0,-0.85937 0.49474,-1.5625 -0.0131,-2.14843 -0.58594,-0.625 -1.32812,-0.9375 -2.26562,-0.9375 h -15.625 c -0.27344,-12.53907 1.40612,-22.606697 0.66393,-33.153572 l 21.21107,-1.455808 c 0.97297,-0.06678 1.71875,-0.3125 2.26562,-0.976562 0.50781,-0.585938 -0.13015,-1.216273 -0.13015,-2.036585 0,-0.859375 0.63796,-1.63529 0.13015,-2.221228 -0.54687,-0.625 -1.28906,-0.9375 -2.26562,-0.9375 h -26.71875 c -0.97657,0 -1.75782,0.351563 -2.34375,1.015625 -0.58594,0.546875 -0.85938,1.289063 -0.82032,2.226563 1.40625,18.554687 2.10938,46.289067 2.10938,83.281247 z"
           style="font-style:normal;font-variant:normal;font-weight:normal;font-stretch:normal;font-size:80px;line-height:1.25;font-family:'Papaya Sunrise';-inkscape-font-specification:'Papaya Sunrise';fill:#008000"
           id="path3768"
           inkscape:connector-curvature="0"
           sodipodi:nodetypes="sccsccccsccccccscscsccscscssccss" />
        <path
           d="m 220.0332,104.91086 c -0.35156,3.00781 -7.92968,9.53125 -9.49218,11.40625 -1.60156,1.83593 2.8125,-0.89844 0,0 -2.14844,0.66406 -4.40107,-1.23554 -7.48701,-1.07929 -0.3125,-13.86719 -0.83331,-22.866025 -0.83331,-31.576962 4.6875,0.390625 8.32032,1.171875 10.85938,2.34375 3.55469,1.679687 5.78125,5.3125 6.67969,10.9375 0.46875,2.929687 0.54687,5.585942 0.27343,7.968752 z m -0.78125,53.04687 c -3.55468,3.00782 -8.78906,4.80469 -15.78125,5.3125 -0.0391,-8.82812 0.0234,-20.53493 -0.36722,-37.52711 l 1.65629,-0.83226 1.875,0.35156 c 1.52343,0.27344 2.77343,0.54688 3.82812,0.78125 2.85156,0.66406 6.40619,2.02763 8.39838,2.96513 4.57031,2.10938 6.01568,5.66768 6.5235,11.83956 0.625,7.34375 -1.40625,13.04687 -6.13282,17.10937 z m -22.69531,-34.375 c 0.42969,18.00782 -0.10412,34.10483 -0.10412,43.0892 0,0.89844 -0.45112,1.59559 1.13738,1.16264 1.03705,0.78723 0.52922,0.12316 1.03705,0.78723 0.58594,0.74218 1.36719,1.09375 2.42188,1.05468 9.41406,-0.35156 16.79687,-2.61718 22.07031,-6.875 6.05469,-4.80468 8.90625,-11.83593 8.59375,-21.05468 -0.27344,-8.04688 -3.16406,-13.90625 -8.75,-17.61719 -1.95312,-1.28906 -4.375,-2.38281 -7.22656,-3.24219 2.07031,-1.01562 3.90625,-2.30469 5.42969,-3.82812 4.29687,-4.29688 5.9375,-11.01563 4.88281,-20.195317 -0.82031,-7.226563 -3.63281,-12.382813 -8.39844,-15.46875 -2.42187,-1.601563 -5.58594,-2.695313 -9.45312,-3.359375 -1.44532,-0.234375 -3.125,-0.429688 -5.11719,-0.585938 l -2.5,0.164982 -2.39649,0.01057 c -1.48437,-0.117187 -2.48632,-0.05836 -2.91601,1.308823 -0.42969,1.289063 -0.23435,3.164062 0.66409,4.140625 -0.0391,0.234375 0,-0.273437 0,0 0,9.023438 0.19531,22.5 0.625,40.50781 z"
           style="font-style:normal;font-variant:normal;font-weight:normal;font-stretch:normal;font-size:80px;line-height:1.25;font-family:'Papaya Sunrise';-inkscape-font-specification:'Papaya Sunrise';fill:#008000"
           id="path3770"
           inkscape:connector-curvature="0"
           sodipodi:nodetypes="ccccccccccccccccccsccccccccccccccccscc" />
      </g>
    </a>
    <g
       aria-label="CONF"
       transform="matrix(1.4506014,0,0,1.9545076,40.466618,-354.29552)"
       style="font-style:normal;font-weight:normal;line-height:0.01%;font-family:sans-serif;letter-spacing:0px;word-spacing:0px;fill:#008000;fill-opacity:1;stroke:none;stroke-width:1px;stroke-linecap:butt;stroke-linejoin:miter;stroke-opacity:1"
       id="flowRoot4202">
      <path
         d="m 183.57227,280.46164 c -0.23438,-0.70313 0.74219,0.42969 0,0 -0.74218,-0.42969 -2.92969,-2.26563 -3.75,-2.14844 -0.85938,0.11719 -1.5625,0.58594 -2.07032,1.40625 l -0.97656,1.48438 -0.97656,1.48437 c -0.74219,1.09375 -4.76563,3.51562 -5.46875,4.25781 -0.78125,0.82031 1.40625,-0.19531 0,0 -0.50781,0.0781 -1.13281,0.11719 -1.875,0.11719 h -0.9375 l -0.89844,-0.0391 c -2.42187,-0.0391 -4.41406,-0.39063 -5.97656,-1.01563 -2.07031,-0.82031 -3.47656,-2.1875 -4.25781,-4.0625 -0.66407,-1.60156 -1.05469,-3.51562 -1.21094,-5.78125 -0.0781,-0.82031 -0.11719,-1.83593 -0.11719,-2.96875 v -1.48437 l 0.0391,-1.48438 v -9.84375 l -0.0391,-9.80468 c -0.0391,-5.19532 0,-14.37501 0.0781,-23.00782 v 0 l -0.0781,-2.38281 c -0.0391,-1.99219 0,-3.59375 0.0391,-4.80469 0.15625,-3.75 0.85938,-6.75781 2.07032,-9.0625 1.09375,-2.07031 3.13171,-2.40172 5.35828,-3.18297 2.10937,-0.74219 3.93859,-1.81703 6.20422,-1.11394 2.14843,0.66406 4.10156,2.26562 5.85937,4.84375 1.67969,2.46094 2.57813,4.84375 2.69531,7.14844 0.0391,0.9375 0.42969,1.67968 1.09375,2.26562 0.58594,0.50781 0.96985,-0.51179 1.82922,-0.51179 0.82032,0 1.88172,1.0196 2.46766,0.51179 0.625,-0.54687 0.89844,-1.28906 0.85937,-2.26562 -0.11718,-3.16407 -1.01562,-6.13282 -2.69531,-8.94532 -1.60156,-2.73437 -3.67187,-4.96093 -6.21094,-6.71875 -2.61718,-1.75781 -5.42968,-2.77343 -8.35937,-3.00781 -3.16406,-0.23437 -6.17188,0.46875 -9.02344,2.14844 -2.8125,1.64062 -4.88281,4.10156 -6.21094,7.38281 -1.05468,2.53906 -1.71875,5.74219 -2.03125,9.64844 -0.27343,3.71094 -0.42968,8.24219 -0.39062,13.67187 l 0.0781,6.875 c 0.0391,2.89063 0.0781,5.15625 0.0781,6.83594 l 0.0391,12.34375 v 12.38281 c 0,3.39844 0.15625,6.09375 0.50781,8.125 0.50782,3.00782 1.52344,5.50782 2.96875,7.5 2.92969,4.10157 8.28125,6.09375 16.13282,6.05469 3.47656,-0.0391 6.28906,-0.82031 8.35937,-2.38281 1.17188,-0.89844 2.34375,-2.14844 3.51563,-3.75 0.42968,-0.54688 0.89843,-1.25 1.48437,-2.14844 l 1.36719,-2.14844 c 0.54687,-0.82031 0.70312,-1.60156 0.42969,-2.42187 z"
         style="font-style:normal;font-variant:normal;font-weight:normal;font-stretch:normal;font-size:80px;line-height:1.25;font-family:'Papaya Sunrise';-inkscape-font-specification:'Papaya Sunrise';fill:#008000"
         id="path3773"
         inkscape:connector-curvature="0"
         sodipodi:nodetypes="ccccccccscccccsccccccccccccccsccccccccccccsccccccccc" />
      <path
         d="m 200.0957,260.46164 -0.0391,-5.39063 -0.0781,-5.39062 0.54687,-23.08594 v -2.03125 l -0.0391,-2.10937 c 0.0391,-1.67969 0.15625,-3.04688 0.35156,-4.14063 0.66406,-3.39844 2.1875,-6.32812 4.57031,-8.71094 2.69532,-2.73437 5.625,-3.67187 8.78907,-2.8125 3.78906,1.01563 6.17187,4.02344 7.14843,8.98438 0.35157,1.75781 0.54688,3.90625 0.58594,6.44531 0.0391,0.82031 0.0391,1.875 0,3.08594 v 1.44531 c -0.0391,0.54688 -0.0391,1.01563 -0.0391,1.36719 0,3.51562 0,8.55469 0.0391,15.15625 l 0.0391,7.57812 v 7.57813 c 0,1.28906 0.0391,3.16406 0.11719,5.58594 l 0.0781,2.85156 0.0391,2.85156 c 0.0391,4.53125 -0.3125,8.28125 -0.97656,11.21094 -0.70313,3.00781 -2.57813,5.07812 -5.66407,6.21094 -2.69531,1.01562 -5.66406,1.13281 -8.82812,0.3125 -2.85156,-0.74219 -4.72656,-2.96875 -5.625,-6.71875 -0.3125,-1.32813 -0.54688,-2.96875 -0.66406,-4.92188 -0.0391,-0.625 -0.0391,-1.40625 -0.0781,-2.38281 l -0.0391,-1.09375 -0.0391,-1.05469 c -0.11719,-2.69531 -0.19532,-6.28906 -0.19532,-10.82031 z m 23.59375,28.78906 c 1.95313,-2.07031 3.24219,-4.76562 3.90625,-8.04687 0.58594,-3.00782 0.85938,-6.79688 0.85938,-11.32813 l -0.0781,-2.89062 -0.0391,-2.89063 c -0.0781,-2.46094 -0.11719,-4.33594 -0.11719,-5.66406 v -7.57813 l -0.0391,-7.57812 c -0.0391,-6.71875 -0.0391,-11.75781 0,-15.15625 v -3.08594 l -0.0391,-3.125 c -0.0781,-2.34375 -0.27344,-4.41406 -0.54688,-6.17187 -0.74218,-4.57032 -2.42187,-8.20313 -5.03906,-10.97657 -2.38281,-2.46093 -5.27344,-3.94531 -8.67187,-4.375 -3.39844,-0.46875 -6.5625,0.15625 -9.49219,1.875 -2.46094,1.44532 -4.64844,3.75 -6.5625,6.91407 -1.83594,3.04687 -2.92969,6.05468 -3.28125,9.02343 -0.15625,1.13282 -0.23438,2.53907 -0.27344,4.21875 v 2.10938 2.07031 l -0.54687,23.08594 0.0781,5.15625 0.0391,5.19531 c 0,4.45313 0.0391,7.89063 0.15625,10.35156 l 0.0391,1.21094 v 1.21094 c 0.0391,0.97656 0.0781,1.79687 0.11718,2.46094 0.11719,1.95312 0.27344,3.63281 0.50782,5.07812 0.625,3.86719 1.91406,6.875 3.82812,9.02344 3.78906,4.25781 9.57031,5.66406 17.34375,4.14062 3.20313,-0.625 5.82031,-2.03125 7.85156,-4.25781 z"
         style="font-style:normal;font-variant:normal;font-weight:normal;font-stretch:normal;font-size:80px;line-height:1.25;font-family:'Papaya Sunrise';-inkscape-font-specification:'Papaya Sunrise';fill:#008000"
         id="path3775"
         inkscape:connector-curvature="0" />
      <path
         d="m 266.9707,235.93039 0.46875,17.53906 c 0.19532,6.91406 -0.22492,6.14528 -0.10773,10.94997 l -21.7282,-60.32497 -1.13282,-3.51562 c -0.27343,-0.78125 -0.74218,-1.36719 -1.44531,-1.75782 -0.625,-0.35156 -3.20312,0.39062 -3.94531,0.46875 -0.74219,0.0781 0.50781,-0.50781 0,0 -0.54688,0.54688 -0.82031,1.25 -0.78125,2.10938 0.19531,11.91406 0.27344,26.75781 0.19531,44.53125 l -0.11719,22.22656 c -0.0391,8.94531 -0.0781,16.36719 -0.0781,22.26563 0,0.97656 0.3125,1.71875 0.97656,2.26562 0.58594,0.50781 1.32813,-0.65186 2.14844,-0.65186 0.85937,0 1.5625,1.15967 2.14844,0.65186 0.66406,-0.54687 0.97656,-1.28906 0.97656,-2.26562 l 0.0781,-17.26563 0.0781,-17.22656 c 0.0781,-14.41406 0.29633,-21.06168 0.25724,-29.65543 l 22.04743,62.11637 1.17187,3.47656 c 0.27344,0.82031 0.74219,1.40625 1.40625,1.79687 0.66406,0.35157 3.20313,-0.35156 3.94531,-0.46875 0.74219,-0.0781 -0.50781,0.50782 0,0 0.50782,-0.58593 0.78125,-1.28906 0.78125,-2.14843 0,-10.03907 -0.27343,-25.07813 -0.78125,-45.11719 l -0.3125,-11.28906 -0.23437,-11.28907 c -0.19531,-8.35937 -0.27344,-15.89843 -0.27344,-22.57812 0,-0.9375 -0.3125,-1.67969 -0.97656,-2.26563 -0.58594,-0.50781 -1.32813,0.5118 -2.14844,0.5118 -0.85937,0 -1.60156,-1.01961 -2.1875,-0.5118 -0.66406,0.58594 -0.97656,1.32813 -0.97656,2.26563 0.0391,9.25781 0.19531,20.97656 0.54687,35.15625 z"
         style="font-style:normal;font-variant:normal;font-weight:normal;font-stretch:normal;font-size:80px;line-height:1.25;font-family:'Papaya Sunrise';-inkscape-font-specification:'Papaya Sunrise';fill:#008000"
         id="path3777"
         inkscape:connector-curvature="0"
         sodipodi:nodetypes="cccccccscccscsccccccccccscccscscccc" />
      <path
         d="m 311.93164,243.23508 c 0.58854,-0.625 0.89589,-1.36719 -0.29359,-2.22657 -0.66492,-0.4804 0.8014,-1.52343 0.29359,-2.10937 -0.54687,-0.58594 -1.28906,-0.85938 -2.26562,-0.82031 l -4.375,0.3125 -4.41407,0.3125 c -3.55468,0.27343 -6.48437,0.46875 -8.78906,0.50781 -0.11719,-13.71094 -0.15625,-24.60938 -0.15625,-32.69531 1.75781,-0.0781 3.78906,-0.19532 6.09375,-0.39063 l 6.13281,-0.46875 c 5.03907,-0.39062 9.14063,-0.58594 12.22657,-0.625 0.9375,0 1.67968,-0.3125 2.26562,-0.97656 0.50781,-0.58594 -0.15351,-1.32813 -0.15351,-2.1875 0,-0.82031 0.66132,-1.5625 0.15351,-2.14844 -0.58594,-0.66406 -1.32812,-0.97656 -2.26562,-0.9375 -3.24219,0 -8.04688,0.27344 -14.41407,0.78125 l -3.63281,0.27344 -3.59375,0.23437 c -2.65625,0.19532 -5.07812,0.27344 -7.22656,0.27344 -1.5625,0.0391 -2.53906,0.78125 -2.89063,2.26563 -0.39062,1.44531 1.03574,2.39898 2.09047,3.21929 l -0.99674,21.15571 0.15625,20.97656 c 0.11719,18.55469 0.19532,32.5 0.19532,41.91406 0,0.97656 0.3125,1.71875 0.97656,2.30469 0.58594,0.50781 1.50726,-0.87006 2.32758,-0.87006 0.85937,0 1.38336,1.37787 1.96929,0.87006 0.66407,-0.58594 0.97657,-1.32813 0.97657,-2.30469 0,-6.44531 0,-13.86719 -0.0391,-22.1875 l -0.15625,-22.1875 c 2.30469,-0.0781 5.23438,-0.23437 8.78907,-0.50781 l 4.375,-0.35156 4.375,-0.3125 c 0.97656,-0.0391 1.71875,-0.42969 2.26562,-1.09375 z"
         style="font-style:normal;font-variant:normal;font-weight:normal;font-stretch:normal;font-size:80px;line-height:1.25;font-family:'Papaya Sunrise';-inkscape-font-specification:'Papaya Sunrise';fill:#008000"
         id="path3779"
         inkscape:connector-curvature="0"
         sodipodi:nodetypes="csccccccccccsccccccccccscscsccccccc" />
    </g>
    <g
       aria-label="1"
       transform="matrix(1.1760221,0,0,0.83985588,140.17649,-13.75039)"
       style="font-style:normal;font-weight:normal;line-height:0.01%;font-family:sans-serif;letter-spacing:0px;word-spacing:0px;fill:#cd0000;fill-opacity:1;stroke:none;stroke-width:1px;stroke-linecap:butt;stroke-linejoin:miter;stroke-opacity:1"
       id="flowRoot4210">
      <path
         d="m 357.4424,59.299232 c -0.20414,-2.960066 -1.8862,-3.903483 -4.23383,-5.638694 -2.65386,-1.735211 -5.52816,-3.25781 -8.38615,-1.522599 -6.83878,3.980779 -13.06512,6.736702 -18.78111,8.471913 -2.34764,0.714499 -3.01745,3.10682 -3.93609,5.148245 -0.91864,1.939354 -0.54722,3.523576 -0.0369,5.667072 0.61243,2.143496 0.19631,3.066372 1.93152,4.189156 1.83729,1.224855 3.98078,1.428997 6.32842,0.714498 3.67456,-1.122783 7.4512,-2.449709 11.22784,-4.18492 0.51035,24.803311 0.71449,59.303387 0.40828,103.296097 l -0.20414,25.82402 -0.10207,25.82403 c -0.10207,19.4956 0,36.64357 0.20414,51.64804 0,2.55178 0.81657,4.49114 2.55178,6.02221 1.53107,1.32692 3.70717,0.75558 5.95274,0.75558 2.1435,0 3.8461,0.57134 5.37717,-0.75558 1.73521,-1.53107 2.55178,-3.47043 2.44971,-6.02221 -0.20414,-15.6169 -0.30622,-33.58143 -0.20414,-54.09775 l 0.20414,-27.04888 0.20414,-27.04888 c 0.30621,-45.4217 0,-81.554923 -0.7145,-108.195516 0,-1.122784 0.26937,-2.127191 -0.24099,-3.045832 z"
         style="font-style:normal;font-variant:normal;font-weight:normal;font-stretch:normal;font-size:209.04190063px;line-height:1.25;font-family:'Papaya Sunrise';-inkscape-font-specification:'Papaya Sunrise';fill:#cd0000;fill-opacity:1"
         id="path3782"
         inkscape:connector-curvature="0"
         sodipodi:nodetypes="ccccccccccccccsccccccc" />
    </g>
    <flowRoot
       xml:space="preserve"
       id="flowRoot4231"
       style="font-style:normal;font-weight:normal;line-height:0.01%;font-family:sans-serif;letter-spacing:0px;word-spacing:0px;fill:#000000;fill-opacity:1;stroke:none;stroke-width:1px;stroke-linecap:butt;stroke-linejoin:miter;stroke-opacity:1"><flowRegion
         id="flowRegion4233"><rect
           id="rect4235"
           width="394.28571"
           height="44.285713"
           x="202.85715"
           y="566.64795" /></flowRegion><flowPara
         id="flowPara4237"
         style="font-size:40px;line-height:1.25">Cu</flowPara></flowRoot>    <g
       aria-label="Curitiba - PR Brazil"
       transform="matrix(1.1723372,0,0,1.0567231,-178.03788,-355.21317)"
       style="font-style:normal;font-weight:normal;line-height:0.01%;font-family:sans-serif;letter-spacing:0px;word-spacing:0px;fill:#000000;fill-opacity:1;stroke:none;stroke-width:1px;stroke-linecap:butt;stroke-linejoin:miter;stroke-opacity:1"
       id="flowRoot4239">
      <path
         d="m 221.81641,608.55601 c -0.11719,-0.35156 -0.60094,-0.20533 -0.97203,-0.42017 -0.37109,-0.21484 -0.49282,-0.71264 -0.90297,-0.65404 -0.42969,0.0586 -0.78125,0.29296 -1.03516,0.70312 l -0.48828,0.74219 -0.48828,0.74219 c -0.3711,0.54687 -0.74219,1.01562 -1.09375,1.38671 -0.39063,0.41016 -0.9375,0.64454 -1.64063,0.74219 -0.2539,0.0391 -0.5664,0.0586 -0.9375,0.0586 h -0.46875 l -0.44922,-0.0195 c -1.21093,-0.0195 -2.20703,-0.19531 -2.98828,-0.50781 -1.03515,-0.41015 -1.73828,-1.09375 -2.1289,-2.03125 -0.33204,-0.80078 -0.52735,-1.75781 -0.60547,-2.89062 -0.0391,-0.41016 -0.0586,-0.91797 -0.0586,-1.48438 v -0.74219 l 0.0195,-0.74218 v -4.92188 l -0.0195,-4.90234 c -0.0195,-2.59766 0,-6.05469 0.0391,-10.3711 v -1.13281 l -0.0391,-1.1914 c -0.0195,-0.9961 0,-1.79688 0.0195,-2.40235 0.0781,-1.875 0.42969,-3.3789 1.03516,-4.53125 0.54688,-1.03515 1.38672,-1.73828 2.5,-2.1289 1.05469,-0.3711 2.14844,-0.3711 3.28125,-0.0195 1.07422,0.33204 2.05078,1.13282 2.92969,2.42188 0.83984,1.23047 1.28906,2.42187 1.34765,3.57422 0.0195,0.46875 0.21485,0.83984 0.54688,1.13281 0.29297,0.25391 0.85109,-0.13252 1.28078,-0.13252 0.41016,0 0.57469,0.38643 0.86766,0.13252 0.3125,-0.27344 0.44922,-0.64453 0.42968,-1.13281 -0.0586,-1.58203 -0.50781,-3.06641 -1.34765,-4.47266 -0.80078,-1.36719 -1.83594,-2.48047 -3.10547,-3.35937 -1.30859,-0.87891 -2.71484,-1.38672 -4.17969,-1.50391 -1.58203,-0.11719 -3.08594,0.23438 -4.51172,1.07422 -1.40625,0.82031 -2.4414,2.05078 -3.10547,3.69141 -0.52734,1.26953 -0.85937,2.87109 -1.01562,4.82421 -0.13672,1.85547 -0.21484,4.1211 -0.19531,6.83594 l 0.0391,3.4375 c 0.0195,1.44531 0.0391,2.57813 0.0391,3.41797 l 0.0195,6.17188 v 6.1914 c 0,1.69922 0.0781,3.04688 0.25391,4.0625 0.25391,1.50391 0.76172,2.75391 1.48437,3.75 1.46485,2.05078 4.14063,3.04688 8.06641,3.02735 1.73828,-0.0195 3.14453,-0.41016 4.17969,-1.19141 0.58594,-0.44922 1.17187,-1.07422 1.75781,-1.875 0.21484,-0.27344 0.44922,-0.625 0.74219,-1.07422 l 0.68359,-1.07422 c 0.27344,-0.41015 0.35156,-0.80078 0.21485,-1.21094 z"
         style="font-style:normal;font-variant:normal;font-weight:normal;font-stretch:normal;font-size:40px;line-height:1.25;font-family:'Papaya Sunrise';-inkscape-font-specification:'Papaya Sunrise';text-align:center;text-anchor:middle"
         id="path3785"
         inkscape:connector-curvature="0"
         sodipodi:nodetypes="csccccccscccccsccccccccccccccsccccccccccccsccccccccc" />
      <path
         d="m 242.24609,577.05211 -0.0586,-2.46094 c -0.0586,-1.93359 -0.17578,-3.55469 -0.3125,-4.90234 -0.0586,-0.46875 -0.25391,-0.83985 -0.60547,-1.13282 -0.33203,-0.2539 -0.67195,0.0486 -1.08211,0.0486 -0.42969,0 -0.81242,-0.30248 -1.06633,-0.0486 -0.29297,0.27344 -0.42968,0.64454 -0.37109,1.13282 0.19531,1.8164 0.33203,4.02343 0.39062,6.64062 l 0.0781,3.32031 c 0.0195,1.42579 0.0586,2.53907 0.0781,3.32032 0.25391,9.04297 0.3711,15.9375 0.3711,20.68359 0,0.82031 -0.0195,1.50391 -0.0586,2.05078 -0.0586,0.78125 -0.15625,1.46485 -0.33203,2.07031 -0.41015,1.52344 -1.1914,2.57813 -2.36328,3.1836 -1.15234,0.625 -2.46094,0.74219 -3.92578,0.37109 -0.60547,-0.13672 -1.11328,-0.52734 -1.54297,-1.13281 -0.29297,-0.44922 -0.5664,-1.05469 -0.80078,-1.79688 -0.44922,-1.48437 -0.64453,-3.3789 -0.625,-5.66406 l 0.0391,-1.46484 0.0586,-1.44531 c 0.0586,-1.23047 0.0781,-2.1875 0.0781,-2.83204 l -0.0195,-5.23437 -0.0391,-3.84766 c -0.0391,-3.28125 -0.0586,-5.85937 -0.0586,-7.71484 0.0195,-3.73047 0.13672,-7.24609 0.3711,-10.50781 0.0195,-0.48828 -0.11719,-0.85938 -0.42969,-1.13282 -0.27344,-0.2539 -0.59383,0.19692 -1.00399,0.19692 -0.42968,0.0195 -0.83195,-0.45082 -1.14445,-0.19692 -0.33203,0.27344 -0.52734,0.64454 -0.5664,1.13282 -0.27344,4.0039 -0.39063,9.16015 -0.33203,15.42968 l 0.0391,3.86719 0.0391,5.23438 c 0.0195,3.00781 0.0195,5.58593 -0.0195,7.71484 -0.0586,4.16016 0.39062,7.22656 1.36719,9.23828 0.68359,1.38672 1.73828,2.36328 3.18359,2.92969 1.30859,0.48828 2.75391,0.60547 4.375,0.35156 3.02734,-0.46875 5.03906,-2.20703 6.01563,-5.21484 0.37109,-1.15235 0.625,-2.5586 0.74218,-4.21875 0.0391,-0.64453 0.0586,-1.38672 0.0781,-2.1875 v -2.12891 c -0.0586,-6.36719 -0.23438,-13.4375 -0.48828,-21.21094 z"
         style="font-style:normal;font-variant:normal;font-weight:normal;font-stretch:normal;font-size:40px;line-height:1.25;font-family:'Papaya Sunrise';-inkscape-font-specification:'Papaya Sunrise';text-align:center;text-anchor:middle"
         id="path3787"
         inkscape:connector-curvature="0"
         sodipodi:nodetypes="ccccscccccsccccccccccccccccccccccccccccccc" />
      <path
         d="m 257.40234,588.1068 c -1.17187,1.32812 -3.16406,2.53906 -5.95703,3.61328 0.0391,-8.30078 0.0586,-14.88282 0.0781,-19.72657 2.4414,0.44922 4.35547,1.09375 5.70312,1.95313 0.9961,0.625 1.69922,1.58203 2.08985,2.85156 0.29296,0.95703 0.42968,2.16797 0.41015,3.61328 -0.0586,3.4375 -0.83984,5.9961 -2.32422,7.69532 z m -1.8164,10.03906 0.60547,2.1289 0.625,2.12891 c 0.23437,0.74219 0.52734,1.60156 0.8789,2.59766 l 0.46875,1.28906 0.46875,1.28906 c 0.78125,2.10938 1.32813,3.84766 1.6211,5.23438 0.0976,0.46875 0.35156,0.80078 0.72265,0.97656 0.33203,0.17578 0.60962,-0.0565 1.01977,-0.1737 0.41016,-0.11718 0.81617,-0.0802 1.05054,-0.39273 0.25391,-0.37109 0.33204,-0.78125 0.23438,-1.25 -0.3125,-1.40625 -0.83984,-3.14453 -1.60156,-5.23437 l -0.46875,-1.28906 -0.46875,-1.28907 c -0.3711,-0.99609 -0.66407,-1.85547 -0.89844,-2.57812 -0.19531,-0.64453 -0.42969,-1.40625 -0.68359,-2.30469 l -0.66407,-2.28516 c -0.52734,-1.85546 -1.01562,-3.3789 -1.48437,-4.53125 1.11328,-0.72265 2.03125,-1.5039 2.79297,-2.36328 1.85547,-2.1289 2.87109,-5.35156 3.04687,-9.6875 0.17578,-3.86718 -0.91797,-6.73828 -3.26172,-8.61328 -1.1914,-0.9375 -2.71484,-1.67969 -4.57031,-2.20703 -0.72266,-0.21484 -1.5625,-0.41016 -2.51953,-0.58594 -0.56641,-0.0976 -1.40625,-0.23437 -2.51953,-0.41015 -0.78125,-0.11719 -0.86845,0.51152 -1.23954,1.23417 -0.3711,0.72266 -0.83077,0.97286 -0.36202,1.42208 l -0.0195,10.46875 -0.0586,10.44922 c -0.0586,9.23828 -0.0781,16.1914 -0.0781,20.89843 0,0.48828 0.15625,0.85938 0.48828,1.15235 0.29297,0.2539 0.66406,0.0773 1.07422,0.0773 0.42968,0 0.78125,0.17658 1.07421,-0.0773 0.33204,-0.29297 0.48829,-0.66407 0.48829,-1.15235 0.0195,-4.21875 0.0391,-10.23437 0.0781,-18.02734 1.09375,-0.41016 2.03125,-0.78125 2.8125,-1.11328 0.41016,1.11328 0.85938,2.51953 1.34766,4.21875 z"
         style="font-style:normal;font-variant:normal;font-weight:normal;font-stretch:normal;font-size:40px;line-height:1.25;font-family:'Papaya Sunrise';-inkscape-font-specification:'Papaya Sunrise';text-align:center;text-anchor:middle"
         id="path3789"
         inkscape:connector-curvature="0"
         sodipodi:nodetypes="ccccccccccccccccccccccccccccccccccccscscccccc" />
      <path
         d="m 271.03516,567.65758 c -0.29297,-0.25391 -0.60046,-0.1337 -1.03014,-0.1337 -0.41016,0 -0.82533,-0.12021 -1.1183,0.1337 -0.33203,0.29297 -0.48828,0.66406 -0.50781,1.13281 -0.0586,6.40625 -0.0195,13.69141 0.0781,21.85547 l 0.17578,10.91797 0.21485,10.91797 c 0,0.48828 0.17578,0.85937 0.50781,1.15234 0.29297,0.25391 0.66406,0.0743 1.07422,0.0743 0.42968,0 0.78125,0.17957 1.07422,-0.0743 0.33203,-0.29297 0.48828,-0.66406 0.46875,-1.15234 l -0.19532,-10.91797 -0.17578,-10.91797 c -0.0976,-8.16406 -0.13672,-15.44922 -0.0781,-21.85547 0,-0.46875 -0.15625,-0.83984 -0.48828,-1.13281 z"
         style="font-style:normal;font-variant:normal;font-weight:normal;font-stretch:normal;font-size:40px;line-height:1.25;font-family:'Papaya Sunrise';-inkscape-font-specification:'Papaya Sunrise';text-align:center;text-anchor:middle"
         id="path3791"
         inkscape:connector-curvature="0"
         sodipodi:nodetypes="csccccccscccccc" />
      <path
         d="m 285.19531,614.22008 c 0.29297,0.2539 0.70814,0.015 1.1183,0.015 0.42969,0 0.73717,0.23892 1.03014,-0.015 0.33203,-0.29297 0.48828,-0.66407 0.46875,-1.15235 l -0.13672,-9.66797 -0.15625,-12.42187 c -0.0977,-7.51953 -0.11719,-13.96484 -0.0195,-19.35547 v -0.0586 c 2.05078,-0.0586 3.73047,-0.11719 5.03906,-0.17578 0.46875,-0.0195 0.83985,-0.19532 1.13281,-0.52735 0.25391,-0.3125 0.0184,-0.62424 0.0184,-1.0344 0,-0.42969 0.23547,-0.8406 -0.0184,-1.13357 -0.29296,-0.3125 -0.66406,-0.44922 -1.13281,-0.42968 -4.21875,0.17578 -8.92578,0.29296 -14.12109,0.37109 -0.48828,0 -0.85938,0.15625 -1.15235,0.48828 -0.2539,0.29297 -0.0184,0.72341 -0.0184,1.1531 0,0.41016 -0.23547,0.7219 0.0184,1.01487 0.29297,0.3125 0.66407,0.46875 1.15235,0.46875 1.97265,-0.0195 3.96484,-0.0586 5.95703,-0.11719 -0.0977,5.41016 -0.0977,11.85547 0,19.35547 l 0.15625,12.40234 0.15625,9.66797 c 0,0.48828 0.17578,0.85938 0.50781,1.15235 z"
         style="font-style:normal;font-variant:normal;font-weight:normal;font-stretch:normal;font-size:40px;line-height:1.25;font-family:'Papaya Sunrise';-inkscape-font-specification:'Papaya Sunrise';text-align:center;text-anchor:middle"
         id="path3793"
         inkscape:connector-curvature="0"
         sodipodi:nodetypes="csccccccccsccccscccccccc" />
      <path
         d="m 301.66016,567.65758 c -0.29297,-0.25391 -0.60046,0.10371 -1.03014,0.10371 -0.41016,0 -0.82533,-0.35762 -1.1183,-0.10371 -0.33203,0.29297 -0.48828,0.66406 -0.50781,1.13281 -0.0586,6.40625 -0.0195,13.69141 0.0781,21.85547 l 0.17578,10.91797 0.21485,10.91797 c 0,0.48828 0.17578,0.85937 0.50781,1.15234 0.29297,0.25391 0.75223,-0.0444 1.16239,-0.0444 0.42968,0 0.69308,0.29828 0.98605,0.0444 0.33203,-0.29297 0.48828,-0.66406 0.46875,-1.15234 l -0.19532,-10.91797 -0.17578,-10.91797 c -0.0976,-8.16406 -0.13672,-15.44922 -0.0781,-21.85547 0,-0.46875 -0.15625,-0.83984 -0.48828,-1.13281 z"
         style="font-style:normal;font-variant:normal;font-weight:normal;font-stretch:normal;font-size:40px;line-height:1.25;font-family:'Papaya Sunrise';-inkscape-font-specification:'Papaya Sunrise';text-align:center;text-anchor:middle"
         id="path3795"
         inkscape:connector-curvature="0"
         sodipodi:nodetypes="csccccccscccccc" />
      <path
         d="m 316.44531,610.27476 c -1.44531,0.91797 -2.98828,1.34766 -4.60937,1.32813 -0.0195,-5.01953 5.5e-4,-11.67514 -0.25336,-20.69858 2.44141,0.27344 4.14008,0.40561 5.44867,1.10874 1.89453,1.01562 2.96875,3.08593 3.24219,6.1914 0.0781,0.91797 0.13672,1.6211 0.15625,2.12891 0.0586,0.80078 0.0586,1.52344 0.0391,2.16797 -0.0586,1.62109 -0.33203,3.00781 -0.83984,4.17968 -0.64454,1.46485 -1.69922,2.67579 -3.1836,3.59375 z m 1.69922,-27.24609 c -1.11328,2.24609 -3.17803,2.99948 -6.61553,3.58542 -0.21484,-6.875 -0.55244,-11.78854 -0.5915,-16.04636 1.69922,0 3.08594,0.17578 4.17969,0.52735 1.71875,0.54687 2.91015,2.08984 3.59375,4.6289 0.72265,2.69532 0.54687,5.13672 -0.56641,7.30469 z m 1.25,6.77734 c -0.64453,-0.50781 -1.42578,-0.9375 -2.34375,-1.26953 1.26953,-0.74218 2.32422,-1.69922 3.125,-2.85156 1.73828,-2.48047 2.36328,-5.64453 1.83594,-9.45312 -0.21485,-1.58204 -0.6836,-3.00782 -1.40625,-4.27735 -0.80078,-1.38672 -1.83594,-2.4414 -3.10547,-3.20312 -1.07422,-0.64453 -2.40234,-1.03516 -4.02344,-1.21094 -0.64453,-0.0781 -1.34765,-0.11719 -2.14844,-0.11719 h -1.05468 l -1.05469,0.0195 c -0.625,0.0195 -0.80972,0.37185 -1.08316,0.8992 -0.23437,0.50781 -0.49887,0.95627 -0.2645,1.46408 -0.0586,0.15625 -0.0781,0.33204 -0.0781,0.50782 0.0391,3.14453 0.11719,6.73828 0.21484,10.78125 l 0.13672,5.39062 0.15625,5.39063 c 0.27344,9.19922 0.41016,16.40625 0.41016,21.58203 0,0.68359 0.48883,0.7767 1.0943,1.03061 0.5664,0.21484 0.91742,0.53189 1.4057,0.21939 2.01172,0.21484 4.0039,-0.21485 5.97656,-1.25 1.85547,-0.9961 3.37891,-2.38281 4.55078,-4.1211 0.95703,-1.42578 1.54297,-3.24218 1.75781,-5.41015 0.13672,-1.42578 0.11719,-3.33985 -0.0976,-5.72266 -0.3125,-3.78906 -1.64063,-6.58203 -4.00391,-8.39844 z"
         style="font-style:normal;font-variant:normal;font-weight:normal;font-stretch:normal;font-size:40px;line-height:1.25;font-family:'Papaya Sunrise';-inkscape-font-specification:'Papaya Sunrise';text-align:center;text-anchor:middle"
         id="path3797"
         inkscape:connector-curvature="0"
         sodipodi:nodetypes="cccccccccccccccccccccccsccccccccscccccccc" />
      <path
         d="m 338.04687,576.75914 c 0.33204,1.71875 0.74219,3.86719 1.19141,6.46484 l 0.58594,3.22266 0.58594,3.22266 1.85546,10.19531 c -0.91796,-0.0195 -2.28515,-0.0195 -4.08203,0.0391 l -2.05078,0.0586 c -0.76172,0.0195 -1.42578,0 -2.03125,-0.0195 0.9961,-5.85937 2.30469,-13.59375 3.94531,-23.18359 z m 7.61719,23.92578 -2.14844,-11.85547 -0.9375,-5.2539 -0.95703,-5.25391 c -0.76172,-4.04297 -1.48437,-7.51953 -2.20703,-10.44922 -0.17578,-0.74219 -0.70312,-0.3019 -1.58203,-0.32143 -0.87891,-0.0195 -1.38672,-0.45982 -1.52344,0.32143 l -1.91406,11.21094 -1.91406,11.1914 c -1.46485,8.59375 -2.71485,16.07422 -3.75,22.42188 -0.0781,0.48828 0.0195,0.89844 0.3125,1.26953 0.2539,0.33203 0.76227,0.2103 1.17242,0.32748 0.42969,0.11719 0.62445,0.43421 0.95648,0.25841 0.3711,-0.19531 0.60547,-0.52735 0.6836,-0.9961 l 1.71875,-10.42968 c 0.68359,0.0391 1.44531,0.0586 2.30469,0.0391 l 2.32421,-0.0586 c 2.05079,-0.0586 3.59375,-0.0586 4.62891,0 l 1.93359,10.70312 c 0.0977,0.46875 0.33204,0.80078 0.70313,0.99609 0.33203,0.17579 0.54633,-0.22014 0.95648,-0.33736 0.42969,-0.0977 0.93805,0.0834 1.17243,-0.2486 0.27343,-0.3711 0.37109,-0.78125 0.29296,-1.26953 l -1.91406,-10.56641 c 0.19531,-0.60547 0.0977,-1.17188 -0.3125,-1.69922 z"
         style="font-style:normal;font-variant:normal;font-weight:normal;font-stretch:normal;font-size:40px;line-height:1.25;font-family:'Papaya Sunrise';-inkscape-font-specification:'Papaya Sunrise';text-align:center;text-anchor:middle"
         id="path3799"
         inkscape:connector-curvature="0"
         sodipodi:nodetypes="cccccccccccccccccccccccccccccccccccc" />
      <path
         d="m 367.28735,601.92145 9.46936,-0.0593 0.35266,2.78766 -9.91018,-0.2374 z"
         style="font-style:normal;font-variant:normal;font-weight:normal;font-stretch:normal;font-size:40px;line-height:1.25;font-family:'Papaya Sunrise';-inkscape-font-specification:'Papaya Sunrise';text-align:center;text-anchor:middle"
         id="path3801"
         inkscape:connector-curvature="0"
         sodipodi:nodetypes="ccccc" />
      <path
         d="m 416.05457,583.40173 c -0.17578,1.50391 -0.66406,2.71485 -1.44531,3.65235 -0.80078,0.91797 -1.89453,1.60156 -3.30078,2.05078 -1.07422,0.33203 -1.94199,-0.4621 -3.48495,-0.38397 -0.15625,-6.9336 -0.67521,-11.58869 -0.67521,-15.94416 2.34375,0.19532 4.16016,0.58594 5.42969,1.17188 1.77734,0.83984 2.89062,2.65625 3.33984,5.46875 0.23438,1.46484 0.27344,2.79297 0.13672,3.98437 z m -0.39062,26.52344 c -1.77735,1.50391 -3.90963,1.63078 -7.40572,1.88469 -0.0195,-4.41406 -0.6021,-10.08781 -0.79741,-18.58391 l 0.95703,0.17578 0.9375,0.17578 c 0.76172,0.13672 1.38672,0.27344 1.91406,0.39063 1.42579,0.33203 2.65625,0.72266 3.65235,1.19141 2.28515,1.05468 3.55469,3.125 3.80859,6.21093 0.3125,3.67188 -0.70312,6.52344 -3.0664,8.55469 z m -11.34766,-17.1875 c 0.21484,9.00391 0.3125,15.74219 0.3125,20.23438 0,0.44921 0.13672,0.80078 0.42969,1.09375 -0.0586,0.44921 0.0391,0.85937 0.29297,1.1914 0.29296,0.3711 0.68359,0.54688 1.21093,0.52735 4.70703,-0.17579 8.39844,-1.3086 11.03516,-3.4375 3.02734,-2.40235 4.45312,-5.91797 4.29687,-10.52735 -0.13671,-4.02344 -1.58203,-6.95312 -4.375,-8.80859 -0.97656,-0.64453 -2.1875,-1.19141 -3.61328,-1.6211 1.03516,-0.50781 1.95313,-1.15234 2.71485,-1.91406 2.14843,-2.14844 2.96875,-5.50781 2.4414,-10.09765 -0.41015,-3.61329 -1.8164,-6.19141 -4.19922,-7.73438 -1.21093,-0.80078 -2.79296,-1.34766 -4.72656,-1.67969 -0.72265,-0.11718 -1.5625,-0.21484 -2.55859,-0.29297 l -1.25,-0.0976 -1.23047,-0.0977 c -0.74219,-0.0586 -0.85828,0.55066 -1.07312,1.23425 -0.21485,0.64453 -0.43076,0.91419 0.0184,1.40247 -0.0195,0.11719 -0.0391,0.23438 -0.0391,0.37109 0,4.51172 0.0977,11.25 0.3125,20.25391 z"
         style="font-style:normal;font-variant:normal;font-weight:normal;font-stretch:normal;font-size:40px;line-height:1.25;font-family:'Papaya Sunrise';-inkscape-font-specification:'Papaya Sunrise';text-align:center;text-anchor:middle"
         id="path3807"
         inkscape:connector-curvature="0"
         sodipodi:nodetypes="ccccccccccccccccccsccccccccccccccccscc" />
      <path
         d="m 436.7577,589.30017 c -1.17188,1.32813 -2.63508,1.23334 -5.42805,2.30756 0.0391,-8.30078 -0.47039,-13.57709 -0.45089,-18.42084 2.44141,0.44922 4.35547,1.09375 5.70312,1.95312 0.9961,0.625 1.69922,1.58204 2.08985,2.85157 0.29297,0.95703 0.42969,2.16797 0.41015,3.61328 -0.0586,3.4375 -0.83984,5.99609 -2.32421,7.69531 z m -1.81641,10.03906 0.60547,2.12891 0.625,2.12891 c 0.23437,0.74218 0.52734,1.60156 0.8789,2.59765 l 0.46875,1.28906 0.46875,1.28907 c 0.78125,2.10937 1.32813,3.84765 1.6211,5.23437 0.0976,0.46875 0.35156,0.80078 0.72265,0.97656 0.33204,0.17579 0.65905,-0.22014 1.06921,-0.33736 0.41015,-0.11719 0.76673,0.0834 1.00111,-0.22907 0.2539,-0.3711 0.33203,-0.78125 0.23437,-1.25 -0.3125,-1.40625 -0.83984,-3.14453 -1.60156,-5.23438 l -0.46875,-1.28906 -0.46875,-1.28906 c -0.37109,-0.9961 -0.66406,-1.85547 -0.89844,-2.57813 -0.19531,-0.64453 -0.42969,-1.40625 -0.68359,-2.30468 l -0.66406,-2.28516 c -0.52735,-1.85547 -1.01563,-3.37891 -1.48438,-4.53125 1.11328,-0.72266 2.03125,-1.50391 2.79297,-2.36328 1.85547,-2.12891 2.87109,-5.35156 3.04687,-9.6875 0.17579,-3.86719 -0.91796,-6.73828 -3.26171,-8.61328 -1.19141,-0.9375 -2.71485,-1.67969 -4.57032,-2.20703 -0.72265,-0.21485 -1.5625,-0.41016 -2.51953,-0.58594 -0.5664,-0.0977 -1.40625,-0.23438 -2.51953,-0.41016 -0.78125,-0.11719 -1.99053,0.0882 -1.73828,0.89844 0.34505,1.10833 -0.33203,1.30859 0.13672,1.75781 l -0.0195,10.46875 -0.0586,10.44922 c -0.0586,9.23828 -0.0781,16.19141 -0.0781,20.89844 0,0.48828 0.15625,0.85937 0.48828,1.15234 0.29297,0.25391 0.66406,-0.0444 1.07422,-0.0444 0.42969,0 0.78125,0.29827 1.07422,0.0444 0.33203,-0.29297 0.48828,-0.66406 0.48828,-1.15234 0.0195,-4.21875 0.0391,-10.23438 0.0781,-18.02735 1.09375,-0.41015 2.03125,-0.78125 2.8125,-1.11328 0.41016,1.11328 0.85938,2.51953 1.34766,4.21875 z"
         style="font-style:normal;font-variant:normal;font-weight:normal;font-stretch:normal;font-size:40px;line-height:1.25;font-family:'Papaya Sunrise';-inkscape-font-specification:'Papaya Sunrise';text-align:center;text-anchor:middle"
         id="path3809"
         inkscape:connector-curvature="0"
         sodipodi:nodetypes="ccccccccccccccccccccccccccccccccscccscscccccc" />
      <path
         d="m 457.08973,577.95251 c 0.33203,1.71875 0.74218,3.86719 1.1914,6.46485 l 0.58594,3.22265 0.58594,3.22266 1.54689,10.01726 c -2.26931,-0.92919 -1.97658,0.15855 -3.77345,0.21715 l -2.05079,0.0586 c -0.76171,0.0195 -1.07312,-0.47481 -1.67859,-0.49431 0.9961,-5.85938 1.95203,-13.11894 3.59266,-22.70879 z m 7.61718,23.92579 -2.14843,-11.85547 -0.9375,-5.25391 -0.95703,-5.25391 c -0.76172,-4.04296 -1.48438,-7.51953 -2.20704,-10.44921 -0.17578,-0.74219 -0.65904,-0.59866 -1.53795,-0.61819 -0.8789,-0.0195 -1.4308,-0.16306 -1.56751,0.61819 l -1.91407,11.21093 -1.91406,11.19141 c -1.46484,8.59375 -2.71484,16.07422 -3.75,22.42187 -0.0781,0.48829 0.0195,0.89844 0.3125,1.26954 0.25391,0.33203 0.58594,0.21029 0.99609,0.32748 0.42969,0.11719 0.80079,0.43421 1.13282,0.25841 0.37109,-0.19531 0.60547,-0.52734 0.68359,-0.99609 l 1.71875,-10.42969 c 0.68359,0.0391 1.44531,0.0586 2.30469,0.0391 l 2.32422,-0.0586 c 2.05078,-0.0586 3.59375,-0.0586 4.6289,0 l 1.9336,10.70313 c 0.0976,0.46875 0.28795,0.50403 0.65904,0.69934 0.33203,0.17578 0.72266,0.19531 1.13281,0.0781 0.42969,-0.0976 0.8058,-0.0353 1.04018,-0.36731 0.27344,-0.37109 0.37109,-0.78125 0.29297,-1.26953 l -1.91407,-10.56641 c 0.19532,-0.60546 0.0977,-1.17187 -0.3125,-1.69921 z"
         style="font-style:normal;font-variant:normal;font-weight:normal;font-stretch:normal;font-size:40px;line-height:1.25;font-family:'Papaya Sunrise';-inkscape-font-specification:'Papaya Sunrise';text-align:center;text-anchor:middle"
         id="path3811"
         inkscape:connector-curvature="0"
         sodipodi:nodetypes="cccccccccccccccccccccccccccccccccccc" />
      <path
         d="m 484.31629,570.68689 c -1.17188,-0.0195 -2.91016,-0.0781 -5.21484,-0.19531 l -2.61719,-0.13672 c -0.95703,-0.0391 -1.83594,-0.0586 -2.61719,-0.0781 -0.46875,0 -0.83984,0.15625 -1.13281,0.48828 -0.25391,0.29297 -0.19477,0.58519 -0.19477,1.01487 0,0.42969 -0.0591,0.8406 0.19477,1.13357 0.29297,0.33203 0.66406,0.48828 1.13281,0.50781 1.13281,0 2.67578,0.0586 4.60938,0.15625 l 2.28515,0.13672 1.7757,0.37485 -10.34992,38.98059 -0.0391,0.13672 c -0.13672,0.48828 -0.0391,0.95703 0.27344,1.36719 0.3125,0.41015 0.72265,0.625 1.25,0.625 h 10.42969 c 0.48828,0 0.85937,-0.15625 1.15234,-0.48828 0.25391,-0.29297 -0.0256,-0.66407 -0.0256,-1.07422 0,-0.42969 0.27956,-0.78125 0.0256,-1.07422 -0.29297,-0.33203 -0.66406,-0.50781 -1.15234,-0.50781 l -7.67359,-0.53416 10.19312,-38.82131 0.0391,-0.13672 c 0.17578,-0.66406 0.0195,-1.19141 -0.50781,-1.60156 -0.48828,-0.3711 -1.03516,-0.44922 -1.60157,-0.25391 z"
         style="font-style:normal;font-variant:normal;font-weight:normal;font-stretch:normal;font-size:40px;line-height:1.25;font-family:'Papaya Sunrise';-inkscape-font-specification:'Papaya Sunrise';text-align:center;text-anchor:middle"
         id="path3813"
         inkscape:connector-curvature="0"
         sodipodi:nodetypes="cccccsccccccccsscscscccccc" />
      <path
         d="m 494.53113,568.85095 c -0.29297,-0.2539 -0.64453,0.28177 -1.07422,0.28177 -0.41015,0 -0.78125,-0.53567 -1.07421,-0.28177 -0.33204,0.29297 -0.48829,0.66406 -0.50782,1.13281 -0.0586,6.40625 -0.0195,13.69141 0.0781,21.85547 l 0.17578,10.91797 0.21484,10.91797 c 0,0.48828 0.17578,0.85938 0.50782,1.15234 0.29296,0.25391 0.75223,-0.10371 1.16238,-0.10371 0.42969,0 0.69308,0.35762 0.98605,0.10371 0.33203,-0.29296 0.48828,-0.66406 0.46875,-1.15234 l -0.19531,-10.91797 -0.17578,-10.91797 c -0.0977,-8.16406 -0.13672,-15.44922 -0.0781,-21.85547 0,-0.46875 -0.15625,-0.83984 -0.48828,-1.13281 z"
         style="font-style:normal;font-variant:normal;font-weight:normal;font-stretch:normal;font-size:40px;line-height:1.25;font-family:'Papaya Sunrise';-inkscape-font-specification:'Papaya Sunrise';text-align:center;text-anchor:middle"
         id="path3815"
         inkscape:connector-curvature="0"
         sodipodi:nodetypes="csccccccscccccc" />
      <path
         d="m 513.45691,616.5658 c 0.46875,0.0195 0.83985,-0.13672 1.13282,-0.44922 0.2539,-0.29297 0.0184,-0.58518 0.0184,-1.01487 0,-0.41016 0.23547,-0.8406 -0.0184,-1.13357 -0.29297,-0.33203 -0.66407,-0.52734 -1.13282,-0.54688 l -9.31029,-0.86619 c 0.0977,-1.26953 -0.22096,-2.23927 -0.18189,-4.01662 l 0.0195,-2.26562 0.0195,-2.26563 0.17578,-10.91797 c 0.11719,-8.41797 0.17578,-15.9375 0.19531,-22.57812 0,-0.48828 -0.15625,-0.85938 -0.48828,-1.15235 -0.29297,-0.2539 -0.70814,0.22242 -1.13783,0.22242 -0.41015,0 -0.73717,-0.47632 -1.03014,-0.22242 -0.33203,0.29297 -0.48828,0.66407 -0.48828,1.15235 0,6.30859 -0.0586,13.63281 -0.17578,21.97265 l -0.17578,10.91797 -0.0195,2.79297 -0.0391,2.8125 c -0.0586,2.16797 -0.17579,4.02344 -0.35157,5.58594 -0.0494,0.34546 0.0412,0.68444 0.29753,0.94158 0.15169,0.15217 0.0962,0.10288 0.15169,0.15217 0.33203,0.29297 0.70313,0.44922 1.11328,0.46875 z"
         style="font-style:normal;font-variant:normal;font-weight:normal;font-stretch:normal;font-size:40px;line-height:1.25;font-family:'Papaya Sunrise';-inkscape-font-specification:'Papaya Sunrise';text-align:center;text-anchor:middle"
         id="path3817"
         inkscape:connector-curvature="0"
         sodipodi:nodetypes="ccscccccccccscscccccsccc" />
    </g>
  </g>
</svg>
